%YAML 1.1
%TAG !u! tag:unity3d.com,2011:
--- !u!1 &8532846674836793019
GameObject:
  m_ObjectHideFlags: 0
  m_CorrespondingSourceObject: {fileID: 0}
  m_PrefabInstance: {fileID: 0}
  m_PrefabAsset: {fileID: 0}
  serializedVersion: 6
  m_Component:
  - component: {fileID: 8532846674836793018}
  - component: {fileID: 8043407324892880737}
  m_Layer: 0
  m_Name: ReactionMovingEnemies
  m_TagString: Untagged
  m_Icon: {fileID: 0}
  m_NavMeshLayer: 0
  m_StaticEditorFlags: 0
  m_IsActive: 1
--- !u!4 &8532846674836793018
Transform:
  m_ObjectHideFlags: 0
  m_CorrespondingSourceObject: {fileID: 0}
  m_PrefabInstance: {fileID: 0}
  m_PrefabAsset: {fileID: 0}
  m_GameObject: {fileID: 8532846674836793019}
  m_LocalRotation: {x: -0, y: -0.0000007152557, z: -0, w: -1}
  m_LocalPosition: {x: -0.000038146973, y: -8.52, z: -0.000022888184}
  m_LocalScale: {x: 1, y: 1, z: 1}
  m_Children: []
  m_Father: {fileID: 0}
  m_RootOrder: 0
  m_LocalEulerAnglesHint: {x: 0, y: 0, z: 0}
--- !u!114 &8043407324892880737
MonoBehaviour:
  m_ObjectHideFlags: 0
  m_CorrespondingSourceObject: {fileID: 0}
  m_PrefabInstance: {fileID: 0}
  m_PrefabAsset: {fileID: 0}
  m_GameObject: {fileID: 8532846674836793019}
  m_Enabled: 1
  m_EditorHideFlags: 0
  m_Script: {fileID: 11500000, guid: 8e0f0d1ac2a3ceb4bb7b8b0755d54ce4, type: 3}
  m_Name: 
  m_EditorClassIdentifier: 
  description: Activa/desactiva movimiento del enemigo
  delay: 0
  nextReaction: {fileID: 0}
  isText: 0
  isActive: 0
