# MagicaVoxel @ Ephtracy

# group
o 

# material
mtllib Cell.mtl
usemtl palette

# normals
vn -1 0 0
vn 1 0 0
vn 0 0 1
vn 0 0 -1
vn 0 -1 0
vn 0 1 0

# texcoords
vt 0.306641 0.5

# verts
v -2.1 0 2.4
v -2.1 0 -2.5
v -2.1 0.3 1.5
v -2.1 0.3 -1.6
v -2.1 0.4 1.6
v -2.1 0.4 1.5
v -2.1 0.4 -1.6
v -2.1 0.4 -1.7
v -2.1 0.5 1.7
v -2.1 0.5 1.6
v -2.1 0.5 -1.7
v -2.1 0.5 -1.8
v -2.1 0.6 1.8
v -2.1 0.6 1.7
v -2.1 0.6 -1.8
v -2.1 0.6 -1.9
v -2.1 0.7 1.9
v -2.1 0.7 1.8
v -2.1 0.7 -1.9
v -2.1 0.7 -2
v -2.1 0.8 2
v -2.1 0.8 1.9
v -2.1 0.8 -2
v -2.1 0.8 -2.1
v -2.1 0.9 2.1
v -2.1 0.9 2
v -2.1 0.9 -2.1
v -2.1 0.9 -2.2
v -2.1 2.3 2.1
v -2.1 2.3 2
v -2.1 2.3 -2.1
v -2.1 2.3 -2.2
v -2.1 2.4 2
v -2.1 2.4 1.9
v -2.1 2.4 -2
v -2.1 2.4 -2.1
v -2.1 2.5 1.9
v -2.1 2.5 1.8
v -2.1 2.5 -1.9
v -2.1 2.5 -2
v -2.1 2.6 1.8
v -2.1 2.6 1.7
v -2.1 2.6 -1.8
v -2.1 2.6 -1.9
v -2.1 2.7 1.7
v -2.1 2.7 1.6
v -2.1 2.7 -1.7
v -2.1 2.7 -1.8
v -2.1 2.8 1.6
v -2.1 2.8 1.5
v -2.1 2.8 -1.6
v -2.1 2.8 -1.7
v -2.1 2.9 1.5
v -2.1 2.9 -1.6
v -2.1 3.2 2.4
v -2.1 3.2 -2.5
v 0.7 2.9 2.1
v 0.7 2.9 2
v 0.7 3.2 2.1
v 0.7 3.2 2
v 0.8 0.3 2.4
v 0.8 0.3 2.1
v 0.8 0.3 -2.2
v 0.8 0.3 -2.5
v 0.8 0.4 2.4
v 0.8 0.4 2.1
v 0.8 0.4 -2.2
v 0.8 0.4 -2.5
v 0.8 2.8 2.4
v 0.8 2.8 2.1
v 0.8 2.8 -2.2
v 0.8 2.8 -2.5
v 0.8 2.9 2.4
v 0.8 2.9 2.1
v 0.8 2.9 2
v 0.8 2.9 1.9
v 0.8 2.9 -2.1
v 0.8 2.9 -2.2
v 0.8 2.9 -2.5
v 0.8 3.2 2
v 0.8 3.2 1.9
v 0.8 3.2 -2.1
v 0.8 3.2 -2.2
v 0.9 0.4 2.4
v 0.9 0.4 2.1
v 0.9 0.4 -2.2
v 0.9 0.4 -2.5
v 0.9 0.5 2.4
v 0.9 0.5 2.1
v 0.9 0.5 -2.2
v 0.9 0.5 -2.5
v 0.9 2.7 2.4
v 0.9 2.7 2.1
v 0.9 2.7 -2.2
v 0.9 2.7 -2.5
v 0.9 2.8 2.4
v 0.9 2.8 2.1
v 0.9 2.8 -2.2
v 0.9 2.8 -2.5
v 0.9 2.9 1.9
v 0.9 2.9 1.8
v 0.9 2.9 -2
v 0.9 2.9 -2.1
v 0.9 3.2 1.9
v 0.9 3.2 1.8
v 0.9 3.2 -2
v 0.9 3.2 -2.1
v 1 0.5 2.4
v 1 0.5 2.1
v 1 0.5 -2.2
v 1 0.5 -2.5
v 1 0.6 2.4
v 1 0.6 2.1
v 1 0.6 -2.2
v 1 0.6 -2.5
v 1 2.6 2.4
v 1 2.6 2.1
v 1 2.6 -2.2
v 1 2.6 -2.5
v 1 2.7 2.4
v 1 2.7 2.1
v 1 2.7 -2.2
v 1 2.7 -2.5
v 1 2.9 1.8
v 1 2.9 1.7
v 1 2.9 -1.9
v 1 2.9 -2
v 1 3.2 1.8
v 1 3.2 1.7
v 1 3.2 -1.9
v 1 3.2 -2
v 1.1 0.6 2.4
v 1.1 0.6 2.1
v 1.1 0.6 -2.2
v 1.1 0.6 -2.5
v 1.1 0.7 2.4
v 1.1 0.7 2.1
v 1.1 0.7 -2.2
v 1.1 0.7 -2.5
v 1.1 2.5 2.4
v 1.1 2.5 2.1
v 1.1 2.5 -2.2
v 1.1 2.5 -2.5
v 1.1 2.6 2.4
v 1.1 2.6 2.1
v 1.1 2.6 -2.2
v 1.1 2.6 -2.5
v 1.1 2.9 1.7
v 1.1 2.9 1.6
v 1.1 2.9 -1.8
v 1.1 2.9 -1.9
v 1.1 3.2 1.7
v 1.1 3.2 1.6
v 1.1 3.2 -1.8
v 1.1 3.2 -1.9
v 1.2 0.7 2.4
v 1.2 0.7 2.1
v 1.2 0.7 -2.2
v 1.2 0.7 -2.5
v 1.2 0.8 2.4
v 1.2 0.8 2.1
v 1.2 0.8 -2.2
v 1.2 0.8 -2.5
v 1.2 2.4 2.4
v 1.2 2.4 2.1
v 1.2 2.4 -2.2
v 1.2 2.4 -2.5
v 1.2 2.5 2.4
v 1.2 2.5 2.1
v 1.2 2.5 -2.2
v 1.2 2.5 -2.5
v 1.2 2.9 1.6
v 1.2 2.9 1.5
v 1.2 2.9 -1.7
v 1.2 2.9 -1.8
v 1.2 3.2 1.6
v 1.2 3.2 1.5
v 1.2 3.2 -1.7
v 1.2 3.2 -1.8
v 1.3 0.8 2.4
v 1.3 0.8 2.1
v 1.3 0.8 -2.2
v 1.3 0.8 -2.5
v 1.3 0.9 2.4
v 1.3 0.9 2.1
v 1.3 0.9 -2.2
v 1.3 0.9 -2.5
v 1.3 2.3 2.4
v 1.3 2.3 2.1
v 1.3 2.3 -2.2
v 1.3 2.3 -2.5
v 1.3 2.4 2.4
v 1.3 2.4 2.1
v 1.3 2.4 -2.2
v 1.3 2.4 -2.5
v 1.3 2.9 1.5
v 1.3 2.9 1.4
v 1.3 2.9 -1.6
v 1.3 2.9 -1.7
v 1.3 3.2 1.5
v 1.3 3.2 1.4
v 1.3 3.2 -1.6
v 1.3 3.2 -1.7
v 1.4 0.3 2.1
v 1.4 0.3 1.5
v 1.4 0.3 -1.6
v 1.4 0.3 -2.2
v 1.4 0.4 1.6
v 1.4 0.4 1.5
v 1.4 0.4 -1.6
v 1.4 0.4 -1.7
v 1.4 0.5 1.7
v 1.4 0.5 1.6
v 1.4 0.5 -1.7
v 1.4 0.5 -1.8
v 1.4 0.6 1.8
v 1.4 0.6 1.7
v 1.4 0.6 -1.8
v 1.4 0.6 -1.9
v 1.4 0.7 1.9
v 1.4 0.7 1.8
v 1.4 0.7 -1.9
v 1.4 0.7 -2
v 1.4 0.8 2
v 1.4 0.8 1.9
v 1.4 0.8 -2
v 1.4 0.8 -2.1
v 1.4 0.9 2.4
v 1.4 0.9 2.1
v 1.4 0.9 2
v 1.4 0.9 -2.1
v 1.4 0.9 -2.2
v 1.4 0.9 -2.5
v 1.4 2.3 2.4
v 1.4 2.3 2.1
v 1.4 2.3 2
v 1.4 2.3 -2.1
v 1.4 2.3 -2.2
v 1.4 2.3 -2.5
v 1.4 2.4 2
v 1.4 2.4 1.9
v 1.4 2.4 -2
v 1.4 2.4 -2.1
v 1.4 2.5 1.9
v 1.4 2.5 1.8
v 1.4 2.5 -1.9
v 1.4 2.5 -2
v 1.4 2.6 1.8
v 1.4 2.6 1.7
v 1.4 2.6 -1.8
v 1.4 2.6 -1.9
v 1.4 2.7 1.7
v 1.4 2.7 1.6
v 1.4 2.7 -1.7
v 1.4 2.7 -1.8
v 1.4 2.8 1.6
v 1.4 2.8 1.5
v 1.4 2.8 -1.6
v 1.4 2.8 -1.7
v 1.4 2.9 2.1
v 1.4 2.9 1.5
v 1.4 2.9 1.4
v 1.4 2.9 -1.6
v 1.4 2.9 -2.2
v 1.4 3.2 1.4
v 1.4 3.2 -1.6
v -1.8 0.3 2.1
v -1.8 0.3 1.5
v -1.8 0.3 -1.6
v -1.8 0.3 -2.2
v -1.8 0.4 1.6
v -1.8 0.4 1.5
v -1.8 0.4 -1.6
v -1.8 0.4 -1.7
v -1.8 0.5 1.7
v -1.8 0.5 1.6
v -1.8 0.5 -1.7
v -1.8 0.5 -1.8
v -1.8 0.6 1.8
v -1.8 0.6 1.7
v -1.8 0.6 -1.8
v -1.8 0.6 -1.9
v -1.8 0.7 1.9
v -1.8 0.7 1.8
v -1.8 0.7 -1.9
v -1.8 0.7 -2
v -1.8 0.8 2
v -1.8 0.8 1.9
v -1.8 0.8 -2
v -1.8 0.8 -2.1
v -1.8 0.9 2.4
v -1.8 0.9 2.1
v -1.8 0.9 2
v -1.8 0.9 -2.1
v -1.8 0.9 -2.2
v -1.8 0.9 -2.5
v -1.8 2.3 2.4
v -1.8 2.3 2.1
v -1.8 2.3 2
v -1.8 2.3 -2.1
v -1.8 2.3 -2.2
v -1.8 2.3 -2.5
v -1.8 2.4 2
v -1.8 2.4 1.9
v -1.8 2.4 -2
v -1.8 2.4 -2.1
v -1.8 2.5 1.9
v -1.8 2.5 1.8
v -1.8 2.5 -1.9
v -1.8 2.5 -2
v -1.8 2.6 1.8
v -1.8 2.6 1.7
v -1.8 2.6 -1.8
v -1.8 2.6 -1.9
v -1.8 2.7 1.7
v -1.8 2.7 1.6
v -1.8 2.7 -1.7
v -1.8 2.7 -1.8
v -1.8 2.8 1.6
v -1.8 2.8 1.5
v -1.8 2.8 -1.6
v -1.8 2.8 -1.7
v -1.8 2.9 2.1
v -1.8 2.9 1.5
v -1.8 2.9 1.4
v -1.8 2.9 -1.4
v -1.8 2.9 -1.6
v -1.8 2.9 -2.2
v -1.8 3.2 1.4
v -1.8 3.2 -1.4
v -1.7 0.8 2.4
v -1.7 0.8 2.1
v -1.7 0.8 -2.2
v -1.7 0.8 -2.5
v -1.7 0.9 2.4
v -1.7 0.9 2.1
v -1.7 0.9 -2.2
v -1.7 0.9 -2.5
v -1.7 2.3 2.4
v -1.7 2.3 2.1
v -1.7 2.3 -2.2
v -1.7 2.3 -2.5
v -1.7 2.4 2.4
v -1.7 2.4 2.1
v -1.7 2.4 -2.2
v -1.7 2.4 -2.5
v -1.7 2.9 1.5
v -1.7 2.9 1.4
v -1.7 2.9 -1.4
v -1.7 2.9 -1.5
v -1.7 3.2 1.5
v -1.7 3.2 1.4
v -1.7 3.2 -1.4
v -1.7 3.2 -1.5
v -1.6 0.7 2.4
v -1.6 0.7 2.1
v -1.6 0.7 -2.2
v -1.6 0.7 -2.5
v -1.6 0.8 2.4
v -1.6 0.8 2.1
v -1.6 0.8 -2.2
v -1.6 0.8 -2.5
v -1.6 2.4 2.4
v -1.6 2.4 2.1
v -1.6 2.4 -2.2
v -1.6 2.4 -2.5
v -1.6 2.5 2.4
v -1.6 2.5 2.1
v -1.6 2.5 -2.2
v -1.6 2.5 -2.5
v -1.6 2.9 1.6
v -1.6 2.9 1.5
v -1.6 2.9 -1.5
v -1.6 2.9 -1.6
v -1.6 3.2 1.6
v -1.6 3.2 1.5
v -1.6 3.2 -1.5
v -1.6 3.2 -1.6
v -1.5 0.6 2.4
v -1.5 0.6 2.1
v -1.5 0.6 -2.2
v -1.5 0.6 -2.5
v -1.5 0.7 2.4
v -1.5 0.7 2.1
v -1.5 0.7 -2.2
v -1.5 0.7 -2.5
v -1.5 2.5 2.4
v -1.5 2.5 2.1
v -1.5 2.5 -2.2
v -1.5 2.5 -2.5
v -1.5 2.6 2.4
v -1.5 2.6 2.1
v -1.5 2.6 -2.2
v -1.5 2.6 -2.5
v -1.5 2.9 1.7
v -1.5 2.9 1.6
v -1.5 2.9 -1.6
v -1.5 2.9 -1.7
v -1.5 3.2 1.7
v -1.5 3.2 1.6
v -1.5 3.2 -1.6
v -1.5 3.2 -1.7
v -1.4 0.5 2.4
v -1.4 0.5 2.1
v -1.4 0.5 -2.2
v -1.4 0.5 -2.5
v -1.4 0.6 2.4
v -1.4 0.6 2.1
v -1.4 0.6 -2.2
v -1.4 0.6 -2.5
v -1.4 2.6 2.4
v -1.4 2.6 2.1
v -1.4 2.6 -2.2
v -1.4 2.6 -2.5
v -1.4 2.7 2.4
v -1.4 2.7 2.1
v -1.4 2.7 -2.2
v -1.4 2.7 -2.5
v -1.4 2.9 1.8
v -1.4 2.9 1.7
v -1.4 2.9 -1.7
v -1.4 2.9 -1.8
v -1.4 3.2 1.8
v -1.4 3.2 1.7
v -1.4 3.2 -1.7
v -1.4 3.2 -1.8
v -1.3 0.4 2.4
v -1.3 0.4 2.1
v -1.3 0.4 -2.2
v -1.3 0.4 -2.5
v -1.3 0.5 2.4
v -1.3 0.5 2.1
v -1.3 0.5 -2.2
v -1.3 0.5 -2.5
v -1.3 2.7 2.4
v -1.3 2.7 2.1
v -1.3 2.7 -2.2
v -1.3 2.7 -2.5
v -1.3 2.8 2.4
v -1.3 2.8 2.1
v -1.3 2.8 -2.2
v -1.3 2.8 -2.5
v -1.3 2.9 1.9
v -1.3 2.9 1.8
v -1.3 2.9 -1.8
v -1.3 2.9 -1.9
v -1.3 3.2 1.9
v -1.3 3.2 1.8
v -1.3 3.2 -1.8
v -1.3 3.2 -1.9
v -1.2 0.3 2.4
v -1.2 0.3 2.1
v -1.2 0.3 -2.2
v -1.2 0.3 -2.5
v -1.2 0.4 2.4
v -1.2 0.4 2.1
v -1.2 0.4 -2.2
v -1.2 0.4 -2.5
v -1.2 2.8 2.4
v -1.2 2.8 2.1
v -1.2 2.9 2.4
v -1.2 2.9 2.1
v -1.2 2.9 2
v -1.2 2.9 1.9
v -1.2 2.9 -1.9
v -1.2 2.9 -2
v -1.2 3.2 2
v -1.2 3.2 1.9
v -1.2 3.2 -1.9
v -1.2 3.2 -2
v -1.1 2.9 2.1
v -1.1 2.9 2
v -1.1 2.9 -2
v -1.1 2.9 -2.1
v -1.1 3.2 2.1
v -1.1 3.2 2
v -1.1 3.2 -2
v -1.1 3.2 -2.1
v -1 2.8 -2.2
v -1 2.8 -2.5
v -1 2.9 -2.1
v -1 2.9 -2.2
v -1 2.9 -2.5
v -1 3.2 -2.1
v -1 3.2 -2.2
v 1.7 0 2.4
v 1.7 0 -2.5
v 1.7 0.3 1.5
v 1.7 0.3 -1.6
v 1.7 0.4 1.6
v 1.7 0.4 1.5
v 1.7 0.4 -1.6
v 1.7 0.4 -1.7
v 1.7 0.5 1.7
v 1.7 0.5 1.6
v 1.7 0.5 -1.7
v 1.7 0.5 -1.8
v 1.7 0.6 1.8
v 1.7 0.6 1.7
v 1.7 0.6 -1.8
v 1.7 0.6 -1.9
v 1.7 0.7 1.9
v 1.7 0.7 1.8
v 1.7 0.7 -1.9
v 1.7 0.7 -2
v 1.7 0.8 2
v 1.7 0.8 1.9
v 1.7 0.8 -2
v 1.7 0.8 -2.1
v 1.7 0.9 2.1
v 1.7 0.9 2
v 1.7 0.9 -2.1
v 1.7 0.9 -2.2
v 1.7 2.3 2.1
v 1.7 2.3 2
v 1.7 2.3 -2.1
v 1.7 2.3 -2.2
v 1.7 2.4 2
v 1.7 2.4 1.9
v 1.7 2.4 -2
v 1.7 2.4 -2.1
v 1.7 2.5 1.9
v 1.7 2.5 1.8
v 1.7 2.5 -1.9
v 1.7 2.5 -2
v 1.7 2.6 1.8
v 1.7 2.6 1.7
v 1.7 2.6 -1.8
v 1.7 2.6 -1.9
v 1.7 2.7 1.7
v 1.7 2.7 1.6
v 1.7 2.7 -1.7
v 1.7 2.7 -1.8
v 1.7 2.8 1.6
v 1.7 2.8 1.5
v 1.7 2.8 -1.6
v 1.7 2.8 -1.7
v 1.7 2.9 1.5
v 1.7 2.9 -1.6
v 1.7 3.2 2.4
v 1.7 3.2 -2.5
v -2.1 0 2.4
v -2.1 3.2 2.4
v -1.8 0.9 2.4
v -1.8 2.3 2.4
v -1.7 0.8 2.4
v -1.7 0.9 2.4
v -1.7 2.3 2.4
v -1.7 2.4 2.4
v -1.6 0.7 2.4
v -1.6 0.8 2.4
v -1.6 2.4 2.4
v -1.6 2.5 2.4
v -1.5 0.6 2.4
v -1.5 0.7 2.4
v -1.5 2.5 2.4
v -1.5 2.6 2.4
v -1.4 0.5 2.4
v -1.4 0.6 2.4
v -1.4 2.6 2.4
v -1.4 2.7 2.4
v -1.3 0.4 2.4
v -1.3 0.5 2.4
v -1.3 2.7 2.4
v -1.3 2.8 2.4
v -1.2 0.3 2.4
v -1.2 0.4 2.4
v -1.2 2.8 2.4
v -1.2 2.9 2.4
v 0.8 0.3 2.4
v 0.8 0.4 2.4
v 0.8 2.8 2.4
v 0.8 2.9 2.4
v 0.9 0.4 2.4
v 0.9 0.5 2.4
v 0.9 2.7 2.4
v 0.9 2.8 2.4
v 1 0.5 2.4
v 1 0.6 2.4
v 1 2.6 2.4
v 1 2.7 2.4
v 1.1 0.6 2.4
v 1.1 0.7 2.4
v 1.1 2.5 2.4
v 1.1 2.6 2.4
v 1.2 0.7 2.4
v 1.2 0.8 2.4
v 1.2 2.4 2.4
v 1.2 2.5 2.4
v 1.3 0.8 2.4
v 1.3 0.9 2.4
v 1.3 2.3 2.4
v 1.3 2.4 2.4
v 1.4 0.9 2.4
v 1.4 2.3 2.4
v 1.7 0 2.4
v 1.7 3.2 2.4
v -1.8 2.9 -1.4
v -1.8 3.2 -1.4
v -1.7 2.9 -1.4
v -1.7 3.2 -1.4
v -1.7 2.9 -1.5
v -1.7 3.2 -1.5
v -1.6 2.9 -1.5
v -1.6 3.2 -1.5
v -2.1 0.3 -1.6
v -2.1 0.4 -1.6
v -2.1 2.8 -1.6
v -2.1 2.9 -1.6
v -1.8 0.3 -1.6
v -1.8 0.4 -1.6
v -1.8 2.8 -1.6
v -1.8 2.9 -1.6
v -1.6 2.9 -1.6
v -1.6 3.2 -1.6
v -1.5 2.9 -1.6
v -1.5 3.2 -1.6
v 1.3 2.9 -1.6
v 1.3 3.2 -1.6
v 1.4 0.3 -1.6
v 1.4 0.4 -1.6
v 1.4 2.8 -1.6
v 1.4 2.9 -1.6
v 1.4 3.2 -1.6
v 1.7 0.3 -1.6
v 1.7 0.4 -1.6
v 1.7 2.8 -1.6
v 1.7 2.9 -1.6
v -2.1 0.4 -1.7
v -2.1 0.5 -1.7
v -2.1 2.7 -1.7
v -2.1 2.8 -1.7
v -1.8 0.4 -1.7
v -1.8 0.5 -1.7
v -1.8 2.7 -1.7
v -1.8 2.8 -1.7
v -1.5 2.9 -1.7
v -1.5 3.2 -1.7
v -1.4 2.9 -1.7
v -1.4 3.2 -1.7
v 1.2 2.9 -1.7
v 1.2 3.2 -1.7
v 1.3 2.9 -1.7
v 1.3 3.2 -1.7
v 1.4 0.4 -1.7
v 1.4 0.5 -1.7
v 1.4 2.7 -1.7
v 1.4 2.8 -1.7
v 1.7 0.4 -1.7
v 1.7 0.5 -1.7
v 1.7 2.7 -1.7
v 1.7 2.8 -1.7
v -2.1 0.5 -1.8
v -2.1 0.6 -1.8
v -2.1 2.6 -1.8
v -2.1 2.7 -1.8
v -1.8 0.5 -1.8
v -1.8 0.6 -1.8
v -1.8 2.6 -1.8
v -1.8 2.7 -1.8
v -1.4 2.9 -1.8
v -1.4 3.2 -1.8
v -1.3 2.9 -1.8
v -1.3 3.2 -1.8
v 1.1 2.9 -1.8
v 1.1 3.2 -1.8
v 1.2 2.9 -1.8
v 1.2 3.2 -1.8
v 1.4 0.5 -1.8
v 1.4 0.6 -1.8
v 1.4 2.6 -1.8
v 1.4 2.7 -1.8
v 1.7 0.5 -1.8
v 1.7 0.6 -1.8
v 1.7 2.6 -1.8
v 1.7 2.7 -1.8
v -2.1 0.6 -1.9
v -2.1 0.7 -1.9
v -2.1 2.5 -1.9
v -2.1 2.6 -1.9
v -1.8 0.6 -1.9
v -1.8 0.7 -1.9
v -1.8 2.5 -1.9
v -1.8 2.6 -1.9
v -1.3 2.9 -1.9
v -1.3 3.2 -1.9
v -1.2 2.9 -1.9
v -1.2 3.2 -1.9
v 1 2.9 -1.9
v 1 3.2 -1.9
v 1.1 2.9 -1.9
v 1.1 3.2 -1.9
v 1.4 0.6 -1.9
v 1.4 0.7 -1.9
v 1.4 2.5 -1.9
v 1.4 2.6 -1.9
v 1.7 0.6 -1.9
v 1.7 0.7 -1.9
v 1.7 2.5 -1.9
v 1.7 2.6 -1.9
v -2.1 0.7 -2
v -2.1 0.8 -2
v -2.1 2.4 -2
v -2.1 2.5 -2
v -1.8 0.7 -2
v -1.8 0.8 -2
v -1.8 2.4 -2
v -1.8 2.5 -2
v -1.2 2.9 -2
v -1.2 3.2 -2
v -1.1 2.9 -2
v -1.1 3.2 -2
v 0.9 2.9 -2
v 0.9 3.2 -2
v 1 2.9 -2
v 1 3.2 -2
v 1.4 0.7 -2
v 1.4 0.8 -2
v 1.4 2.4 -2
v 1.4 2.5 -2
v 1.7 0.7 -2
v 1.7 0.8 -2
v 1.7 2.4 -2
v 1.7 2.5 -2
v -2.1 0.8 -2.1
v -2.1 0.9 -2.1
v -2.1 2.3 -2.1
v -2.1 2.4 -2.1
v -1.8 0.8 -2.1
v -1.8 0.9 -2.1
v -1.8 2.3 -2.1
v -1.8 2.4 -2.1
v -1.1 2.9 -2.1
v -1.1 3.2 -2.1
v -1 2.9 -2.1
v -1 3.2 -2.1
v 0.8 2.9 -2.1
v 0.8 3.2 -2.1
v 0.9 2.9 -2.1
v 0.9 3.2 -2.1
v 1.4 0.8 -2.1
v 1.4 0.9 -2.1
v 1.4 2.3 -2.1
v 1.4 2.4 -2.1
v 1.7 0.8 -2.1
v 1.7 0.9 -2.1
v 1.7 2.3 -2.1
v 1.7 2.4 -2.1
v -2.1 0.9 -2.2
v -2.1 2.3 -2.2
v -1.8 0.3 -2.2
v -1.8 0.9 -2.2
v -1.8 2.3 -2.2
v -1.8 2.9 -2.2
v -1.7 0.8 -2.2
v -1.7 0.9 -2.2
v -1.7 2.3 -2.2
v -1.7 2.4 -2.2
v -1.6 0.7 -2.2
v -1.6 0.8 -2.2
v -1.6 2.4 -2.2
v -1.6 2.5 -2.2
v -1.5 0.6 -2.2
v -1.5 0.7 -2.2
v -1.5 2.5 -2.2
v -1.5 2.6 -2.2
v -1.4 0.5 -2.2
v -1.4 0.6 -2.2
v -1.4 2.6 -2.2
v -1.4 2.7 -2.2
v -1.3 0.4 -2.2
v -1.3 0.5 -2.2
v -1.3 2.7 -2.2
v -1.3 2.8 -2.2
v -1.2 0.3 -2.2
v -1.2 0.4 -2.2
v -1 2.8 -2.2
v -1 2.9 -2.2
v -1 3.2 -2.2
v 0.8 0.3 -2.2
v 0.8 0.4 -2.2
v 0.8 2.8 -2.2
v 0.8 2.9 -2.2
v 0.8 3.2 -2.2
v 0.9 0.4 -2.2
v 0.9 0.5 -2.2
v 0.9 2.7 -2.2
v 0.9 2.8 -2.2
v 1 0.5 -2.2
v 1 0.6 -2.2
v 1 2.6 -2.2
v 1 2.7 -2.2
v 1.1 0.6 -2.2
v 1.1 0.7 -2.2
v 1.1 2.5 -2.2
v 1.1 2.6 -2.2
v 1.2 0.7 -2.2
v 1.2 0.8 -2.2
v 1.2 2.4 -2.2
v 1.2 2.5 -2.2
v 1.3 0.8 -2.2
v 1.3 0.9 -2.2
v 1.3 2.3 -2.2
v 1.3 2.4 -2.2
v 1.4 0.3 -2.2
v 1.4 0.9 -2.2
v 1.4 2.3 -2.2
v 1.4 2.9 -2.2
v 1.7 0.9 -2.2
v 1.7 2.3 -2.2
v -2.1 0.9 2.1
v -2.1 2.3 2.1
v -1.8 0.3 2.1
v -1.8 0.9 2.1
v -1.8 2.3 2.1
v -1.8 2.9 2.1
v -1.7 0.8 2.1
v -1.7 0.9 2.1
v -1.7 2.3 2.1
v -1.7 2.4 2.1
v -1.6 0.7 2.1
v -1.6 0.8 2.1
v -1.6 2.4 2.1
v -1.6 2.5 2.1
v -1.5 0.6 2.1
v -1.5 0.7 2.1
v -1.5 2.5 2.1
v -1.5 2.6 2.1
v -1.4 0.5 2.1
v -1.4 0.6 2.1
v -1.4 2.6 2.1
v -1.4 2.7 2.1
v -1.3 0.4 2.1
v -1.3 0.5 2.1
v -1.3 2.7 2.1
v -1.3 2.8 2.1
v -1.2 0.3 2.1
v -1.2 0.4 2.1
v -1.2 2.8 2.1
v -1.2 2.9 2.1
v -1.1 2.9 2.1
v -1.1 3.2 2.1
v 0.7 2.9 2.1
v 0.7 3.2 2.1
v 0.8 0.3 2.1
v 0.8 0.4 2.1
v 0.8 2.8 2.1
v 0.8 2.9 2.1
v 0.9 0.4 2.1
v 0.9 0.5 2.1
v 0.9 2.7 2.1
v 0.9 2.8 2.1
v 1 0.5 2.1
v 1 0.6 2.1
v 1 2.6 2.1
v 1 2.7 2.1
v 1.1 0.6 2.1
v 1.1 0.7 2.1
v 1.1 2.5 2.1
v 1.1 2.6 2.1
v 1.2 0.7 2.1
v 1.2 0.8 2.1
v 1.2 2.4 2.1
v 1.2 2.5 2.1
v 1.3 0.8 2.1
v 1.3 0.9 2.1
v 1.3 2.3 2.1
v 1.3 2.4 2.1
v 1.4 0.3 2.1
v 1.4 0.9 2.1
v 1.4 2.3 2.1
v 1.4 2.9 2.1
v 1.7 0.9 2.1
v 1.7 2.3 2.1
v -2.1 0.8 2
v -2.1 0.9 2
v -2.1 2.3 2
v -2.1 2.4 2
v -1.8 0.8 2
v -1.8 0.9 2
v -1.8 2.3 2
v -1.8 2.4 2
v -1.2 2.9 2
v -1.2 3.2 2
v -1.1 2.9 2
v -1.1 3.2 2
v 0.7 2.9 2
v 0.7 3.2 2
v 0.8 2.9 2
v 0.8 3.2 2
v 1.4 0.8 2
v 1.4 0.9 2
v 1.4 2.3 2
v 1.4 2.4 2
v 1.7 0.8 2
v 1.7 0.9 2
v 1.7 2.3 2
v 1.7 2.4 2
v -2.1 0.7 1.9
v -2.1 0.8 1.9
v -2.1 2.4 1.9
v -2.1 2.5 1.9
v -1.8 0.7 1.9
v -1.8 0.8 1.9
v -1.8 2.4 1.9
v -1.8 2.5 1.9
v -1.3 2.9 1.9
v -1.3 3.2 1.9
v -1.2 2.9 1.9
v -1.2 3.2 1.9
v 0.8 2.9 1.9
v 0.8 3.2 1.9
v 0.9 2.9 1.9
v 0.9 3.2 1.9
v 1.4 0.7 1.9
v 1.4 0.8 1.9
v 1.4 2.4 1.9
v 1.4 2.5 1.9
v 1.7 0.7 1.9
v 1.7 0.8 1.9
v 1.7 2.4 1.9
v 1.7 2.5 1.9
v -2.1 0.6 1.8
v -2.1 0.7 1.8
v -2.1 2.5 1.8
v -2.1 2.6 1.8
v -1.8 0.6 1.8
v -1.8 0.7 1.8
v -1.8 2.5 1.8
v -1.8 2.6 1.8
v -1.4 2.9 1.8
v -1.4 3.2 1.8
v -1.3 2.9 1.8
v -1.3 3.2 1.8
v 0.9 2.9 1.8
v 0.9 3.2 1.8
v 1 2.9 1.8
v 1 3.2 1.8
v 1.4 0.6 1.8
v 1.4 0.7 1.8
v 1.4 2.5 1.8
v 1.4 2.6 1.8
v 1.7 0.6 1.8
v 1.7 0.7 1.8
v 1.7 2.5 1.8
v 1.7 2.6 1.8
v -2.1 0.5 1.7
v -2.1 0.6 1.7
v -2.1 2.6 1.7
v -2.1 2.7 1.7
v -1.8 0.5 1.7
v -1.8 0.6 1.7
v -1.8 2.6 1.7
v -1.8 2.7 1.7
v -1.5 2.9 1.7
v -1.5 3.2 1.7
v -1.4 2.9 1.7
v -1.4 3.2 1.7
v 1 2.9 1.7
v 1 3.2 1.7
v 1.1 2.9 1.7
v 1.1 3.2 1.7
v 1.4 0.5 1.7
v 1.4 0.6 1.7
v 1.4 2.6 1.7
v 1.4 2.7 1.7
v 1.7 0.5 1.7
v 1.7 0.6 1.7
v 1.7 2.6 1.7
v 1.7 2.7 1.7
v -2.1 0.4 1.6
v -2.1 0.5 1.6
v -2.1 2.7 1.6
v -2.1 2.8 1.6
v -1.8 0.4 1.6
v -1.8 0.5 1.6
v -1.8 2.7 1.6
v -1.8 2.8 1.6
v -1.6 2.9 1.6
v -1.6 3.2 1.6
v -1.5 2.9 1.6
v -1.5 3.2 1.6
v 1.1 2.9 1.6
v 1.1 3.2 1.6
v 1.2 2.9 1.6
v 1.2 3.2 1.6
v 1.4 0.4 1.6
v 1.4 0.5 1.6
v 1.4 2.7 1.6
v 1.4 2.8 1.6
v 1.7 0.4 1.6
v 1.7 0.5 1.6
v 1.7 2.7 1.6
v 1.7 2.8 1.6
v -2.1 0.3 1.5
v -2.1 0.4 1.5
v -2.1 2.8 1.5
v -2.1 2.9 1.5
v -1.8 0.3 1.5
v -1.8 0.4 1.5
v -1.8 2.8 1.5
v -1.8 2.9 1.5
v -1.7 2.9 1.5
v -1.7 3.2 1.5
v -1.6 2.9 1.5
v -1.6 3.2 1.5
v 1.2 2.9 1.5
v 1.2 3.2 1.5
v 1.3 2.9 1.5
v 1.3 3.2 1.5
v 1.4 0.3 1.5
v 1.4 0.4 1.5
v 1.4 2.8 1.5
v 1.4 2.9 1.5
v 1.7 0.3 1.5
v 1.7 0.4 1.5
v 1.7 2.8 1.5
v 1.7 2.9 1.5
v -1.8 2.9 1.4
v -1.8 3.2 1.4
v -1.7 2.9 1.4
v -1.7 3.2 1.4
v 1.3 2.9 1.4
v 1.3 3.2 1.4
v 1.4 2.9 1.4
v 1.4 3.2 1.4
v -2.1 0 -2.5
v -2.1 3.2 -2.5
v -1.8 0.9 -2.5
v -1.8 2.3 -2.5
v -1.7 0.8 -2.5
v -1.7 0.9 -2.5
v -1.7 2.3 -2.5
v -1.7 2.4 -2.5
v -1.6 0.7 -2.5
v -1.6 0.8 -2.5
v -1.6 2.4 -2.5
v -1.6 2.5 -2.5
v -1.5 0.6 -2.5
v -1.5 0.7 -2.5
v -1.5 2.5 -2.5
v -1.5 2.6 -2.5
v -1.4 0.5 -2.5
v -1.4 0.6 -2.5
v -1.4 2.6 -2.5
v -1.4 2.7 -2.5
v -1.3 0.4 -2.5
v -1.3 0.5 -2.5
v -1.3 2.7 -2.5
v -1.3 2.8 -2.5
v -1.2 0.3 -2.5
v -1.2 0.4 -2.5
v -1 2.8 -2.5
v -1 2.9 -2.5
v 0.8 0.3 -2.5
v 0.8 0.4 -2.5
v 0.8 2.8 -2.5
v 0.8 2.9 -2.5
v 0.9 0.4 -2.5
v 0.9 0.5 -2.5
v 0.9 2.7 -2.5
v 0.9 2.8 -2.5
v 1 0.5 -2.5
v 1 0.6 -2.5
v 1 2.6 -2.5
v 1 2.7 -2.5
v 1.1 0.6 -2.5
v 1.1 0.7 -2.5
v 1.1 2.5 -2.5
v 1.1 2.6 -2.5
v 1.2 0.7 -2.5
v 1.2 0.8 -2.5
v 1.2 2.4 -2.5
v 1.2 2.5 -2.5
v 1.3 0.8 -2.5
v 1.3 0.9 -2.5
v 1.3 2.3 -2.5
v 1.3 2.4 -2.5
v 1.4 0.9 -2.5
v 1.4 2.3 -2.5
v 1.7 0 -2.5
v 1.7 3.2 -2.5
v -2.1 0 2.4
v 1.7 0 2.4
v -2.1 0 -2.5
v 1.7 0 -2.5
v -1.8 2.3 2.4
v -1.7 2.3 2.4
v 1.3 2.3 2.4
v 1.4 2.3 2.4
v -2.1 2.3 2.1
v -1.8 2.3 2.1
v -1.7 2.3 2.1
v 1.3 2.3 2.1
v 1.4 2.3 2.1
v 1.7 2.3 2.1
v -2.1 2.3 2
v -1.8 2.3 2
v 1.4 2.3 2
v 1.7 2.3 2
v -2.1 2.3 -2.1
v -1.8 2.3 -2.1
v 1.4 2.3 -2.1
v 1.7 2.3 -2.1
v -2.1 2.3 -2.2
v -1.8 2.3 -2.2
v -1.7 2.3 -2.2
v 1.3 2.3 -2.2
v 1.4 2.3 -2.2
v 1.7 2.3 -2.2
v -1.8 2.3 -2.5
v -1.7 2.3 -2.5
v 1.3 2.3 -2.5
v 1.4 2.3 -2.5
v -1.7 2.4 2.4
v -1.6 2.4 2.4
v 1.2 2.4 2.4
v 1.3 2.4 2.4
v -1.7 2.4 2.1
v -1.6 2.4 2.1
v 1.2 2.4 2.1
v 1.3 2.4 2.1
v -2.1 2.4 2
v -1.8 2.4 2
v 1.4 2.4 2
v 1.7 2.4 2
v -2.1 2.4 1.9
v -1.8 2.4 1.9
v 1.4 2.4 1.9
v 1.7 2.4 1.9
v -2.1 2.4 -2
v -1.8 2.4 -2
v 1.4 2.4 -2
v 1.7 2.4 -2
v -2.1 2.4 -2.1
v -1.8 2.4 -2.1
v 1.4 2.4 -2.1
v 1.7 2.4 -2.1
v -1.7 2.4 -2.2
v -1.6 2.4 -2.2
v 1.2 2.4 -2.2
v 1.3 2.4 -2.2
v -1.7 2.4 -2.5
v -1.6 2.4 -2.5
v 1.2 2.4 -2.5
v 1.3 2.4 -2.5
v -1.6 2.5 2.4
v -1.5 2.5 2.4
v 1.1 2.5 2.4
v 1.2 2.5 2.4
v -1.6 2.5 2.1
v -1.5 2.5 2.1
v 1.1 2.5 2.1
v 1.2 2.5 2.1
v -2.1 2.5 1.9
v -1.8 2.5 1.9
v 1.4 2.5 1.9
v 1.7 2.5 1.9
v -2.1 2.5 1.8
v -1.8 2.5 1.8
v 1.4 2.5 1.8
v 1.7 2.5 1.8
v -2.1 2.5 -1.9
v -1.8 2.5 -1.9
v 1.4 2.5 -1.9
v 1.7 2.5 -1.9
v -2.1 2.5 -2
v -1.8 2.5 -2
v 1.4 2.5 -2
v 1.7 2.5 -2
v -1.6 2.5 -2.2
v -1.5 2.5 -2.2
v 1.1 2.5 -2.2
v 1.2 2.5 -2.2
v -1.6 2.5 -2.5
v -1.5 2.5 -2.5
v 1.1 2.5 -2.5
v 1.2 2.5 -2.5
v -1.5 2.6 2.4
v -1.4 2.6 2.4
v 1 2.6 2.4
v 1.1 2.6 2.4
v -1.5 2.6 2.1
v -1.4 2.6 2.1
v 1 2.6 2.1
v 1.1 2.6 2.1
v -2.1 2.6 1.8
v -1.8 2.6 1.8
v 1.4 2.6 1.8
v 1.7 2.6 1.8
v -2.1 2.6 1.7
v -1.8 2.6 1.7
v 1.4 2.6 1.7
v 1.7 2.6 1.7
v -2.1 2.6 -1.8
v -1.8 2.6 -1.8
v 1.4 2.6 -1.8
v 1.7 2.6 -1.8
v -2.1 2.6 -1.9
v -1.8 2.6 -1.9
v 1.4 2.6 -1.9
v 1.7 2.6 -1.9
v -1.5 2.6 -2.2
v -1.4 2.6 -2.2
v 1 2.6 -2.2
v 1.1 2.6 -2.2
v -1.5 2.6 -2.5
v -1.4 2.6 -2.5
v 1 2.6 -2.5
v 1.1 2.6 -2.5
v -1.4 2.7 2.4
v -1.3 2.7 2.4
v 0.9 2.7 2.4
v 1 2.7 2.4
v -1.4 2.7 2.1
v -1.3 2.7 2.1
v 0.9 2.7 2.1
v 1 2.7 2.1
v -2.1 2.7 1.7
v -1.8 2.7 1.7
v 1.4 2.7 1.7
v 1.7 2.7 1.7
v -2.1 2.7 1.6
v -1.8 2.7 1.6
v 1.4 2.7 1.6
v 1.7 2.7 1.6
v -2.1 2.7 -1.7
v -1.8 2.7 -1.7
v 1.4 2.7 -1.7
v 1.7 2.7 -1.7
v -2.1 2.7 -1.8
v -1.8 2.7 -1.8
v 1.4 2.7 -1.8
v 1.7 2.7 -1.8
v -1.4 2.7 -2.2
v -1.3 2.7 -2.2
v 0.9 2.7 -2.2
v 1 2.7 -2.2
v -1.4 2.7 -2.5
v -1.3 2.7 -2.5
v 0.9 2.7 -2.5
v 1 2.7 -2.5
v -1.3 2.8 2.4
v -1.2 2.8 2.4
v 0.8 2.8 2.4
v 0.9 2.8 2.4
v -1.3 2.8 2.1
v -1.2 2.8 2.1
v 0.8 2.8 2.1
v 0.9 2.8 2.1
v -2.1 2.8 1.6
v -1.8 2.8 1.6
v 1.4 2.8 1.6
v 1.7 2.8 1.6
v -2.1 2.8 1.5
v -1.8 2.8 1.5
v 1.4 2.8 1.5
v 1.7 2.8 1.5
v -2.1 2.8 -1.6
v -1.8 2.8 -1.6
v 1.4 2.8 -1.6
v 1.7 2.8 -1.6
v -2.1 2.8 -1.7
v -1.8 2.8 -1.7
v 1.4 2.8 -1.7
v 1.7 2.8 -1.7
v -1.3 2.8 -2.2
v -1 2.8 -2.2
v 0.8 2.8 -2.2
v 0.9 2.8 -2.2
v -1.3 2.8 -2.5
v -1 2.8 -2.5
v 0.8 2.8 -2.5
v 0.9 2.8 -2.5
v -1.2 2.9 2.4
v 0.8 2.9 2.4
v -1.8 2.9 2.1
v -1.2 2.9 2.1
v -1.1 2.9 2.1
v 0.7 2.9 2.1
v 0.8 2.9 2.1
v 1.4 2.9 2.1
v -1.2 2.9 2
v -1.1 2.9 2
v 0.7 2.9 2
v 0.8 2.9 2
v -1.3 2.9 1.9
v -1.2 2.9 1.9
v 0.8 2.9 1.9
v 0.9 2.9 1.9
v -1.4 2.9 1.8
v -1.3 2.9 1.8
v 0.9 2.9 1.8
v 1 2.9 1.8
v -1.5 2.9 1.7
v -1.4 2.9 1.7
v 1 2.9 1.7
v 1.1 2.9 1.7
v -1.6 2.9 1.6
v -1.5 2.9 1.6
v 1.1 2.9 1.6
v 1.2 2.9 1.6
v -2.1 2.9 1.5
v -1.8 2.9 1.5
v -1.7 2.9 1.5
v -1.6 2.9 1.5
v 1.2 2.9 1.5
v 1.3 2.9 1.5
v 1.4 2.9 1.5
v 1.7 2.9 1.5
v -1.8 2.9 1.4
v -1.7 2.9 1.4
v 1.3 2.9 1.4
v 1.4 2.9 1.4
v -1.8 2.9 -1.4
v -1.7 2.9 -1.4
v -1.7 2.9 -1.5
v -1.6 2.9 -1.5
v -2.1 2.9 -1.6
v -1.8 2.9 -1.6
v -1.6 2.9 -1.6
v -1.5 2.9 -1.6
v 1.3 2.9 -1.6
v 1.4 2.9 -1.6
v 1.7 2.9 -1.6
v -1.5 2.9 -1.7
v -1.4 2.9 -1.7
v 1.2 2.9 -1.7
v 1.3 2.9 -1.7
v -1.4 2.9 -1.8
v -1.3 2.9 -1.8
v 1.1 2.9 -1.8
v 1.2 2.9 -1.8
v -1.3 2.9 -1.9
v -1.2 2.9 -1.9
v 1 2.9 -1.9
v 1.1 2.9 -1.9
v -1.2 2.9 -2
v -1.1 2.9 -2
v 0.9 2.9 -2
v 1 2.9 -2
v -1.1 2.9 -2.1
v -1 2.9 -2.1
v 0.8 2.9 -2.1
v 0.9 2.9 -2.1
v -1.8 2.9 -2.2
v -1 2.9 -2.2
v 0.8 2.9 -2.2
v 1.4 2.9 -2.2
v -1 2.9 -2.5
v 0.8 2.9 -2.5
v -1.2 0.3 2.4
v 0.8 0.3 2.4
v -1.8 0.3 2.1
v -1.2 0.3 2.1
v 0.8 0.3 2.1
v 1.4 0.3 2.1
v -2.1 0.3 1.5
v -1.8 0.3 1.5
v 1.4 0.3 1.5
v 1.7 0.3 1.5
v -2.1 0.3 -1.6
v -1.8 0.3 -1.6
v 1.4 0.3 -1.6
v 1.7 0.3 -1.6
v -1.8 0.3 -2.2
v -1.2 0.3 -2.2
v 0.8 0.3 -2.2
v 1.4 0.3 -2.2
v -1.2 0.3 -2.5
v 0.8 0.3 -2.5
v -1.3 0.4 2.4
v -1.2 0.4 2.4
v 0.8 0.4 2.4
v 0.9 0.4 2.4
v -1.3 0.4 2.1
v -1.2 0.4 2.1
v 0.8 0.4 2.1
v 0.9 0.4 2.1
v -2.1 0.4 1.6
v -1.8 0.4 1.6
v 1.4 0.4 1.6
v 1.7 0.4 1.6
v -2.1 0.4 1.5
v -1.8 0.4 1.5
v 1.4 0.4 1.5
v 1.7 0.4 1.5
v -2.1 0.4 -1.6
v -1.8 0.4 -1.6
v 1.4 0.4 -1.6
v 1.7 0.4 -1.6
v -2.1 0.4 -1.7
v -1.8 0.4 -1.7
v 1.4 0.4 -1.7
v 1.7 0.4 -1.7
v -1.3 0.4 -2.2
v -1.2 0.4 -2.2
v 0.8 0.4 -2.2
v 0.9 0.4 -2.2
v -1.3 0.4 -2.5
v -1.2 0.4 -2.5
v 0.8 0.4 -2.5
v 0.9 0.4 -2.5
v -1.4 0.5 2.4
v -1.3 0.5 2.4
v 0.9 0.5 2.4
v 1 0.5 2.4
v -1.4 0.5 2.1
v -1.3 0.5 2.1
v 0.9 0.5 2.1
v 1 0.5 2.1
v -2.1 0.5 1.7
v -1.8 0.5 1.7
v 1.4 0.5 1.7
v 1.7 0.5 1.7
v -2.1 0.5 1.6
v -1.8 0.5 1.6
v 1.4 0.5 1.6
v 1.7 0.5 1.6
v -2.1 0.5 -1.7
v -1.8 0.5 -1.7
v 1.4 0.5 -1.7
v 1.7 0.5 -1.7
v -2.1 0.5 -1.8
v -1.8 0.5 -1.8
v 1.4 0.5 -1.8
v 1.7 0.5 -1.8
v -1.4 0.5 -2.2
v -1.3 0.5 -2.2
v 0.9 0.5 -2.2
v 1 0.5 -2.2
v -1.4 0.5 -2.5
v -1.3 0.5 -2.5
v 0.9 0.5 -2.5
v 1 0.5 -2.5
v -1.5 0.6 2.4
v -1.4 0.6 2.4
v 1 0.6 2.4
v 1.1 0.6 2.4
v -1.5 0.6 2.1
v -1.4 0.6 2.1
v 1 0.6 2.1
v 1.1 0.6 2.1
v -2.1 0.6 1.8
v -1.8 0.6 1.8
v 1.4 0.6 1.8
v 1.7 0.6 1.8
v -2.1 0.6 1.7
v -1.8 0.6 1.7
v 1.4 0.6 1.7
v 1.7 0.6 1.7
v -2.1 0.6 -1.8
v -1.8 0.6 -1.8
v 1.4 0.6 -1.8
v 1.7 0.6 -1.8
v -2.1 0.6 -1.9
v -1.8 0.6 -1.9
v 1.4 0.6 -1.9
v 1.7 0.6 -1.9
v -1.5 0.6 -2.2
v -1.4 0.6 -2.2
v 1 0.6 -2.2
v 1.1 0.6 -2.2
v -1.5 0.6 -2.5
v -1.4 0.6 -2.5
v 1 0.6 -2.5
v 1.1 0.6 -2.5
v -1.6 0.7 2.4
v -1.5 0.7 2.4
v 1.1 0.7 2.4
v 1.2 0.7 2.4
v -1.6 0.7 2.1
v -1.5 0.7 2.1
v 1.1 0.7 2.1
v 1.2 0.7 2.1
v -2.1 0.7 1.9
v -1.8 0.7 1.9
v 1.4 0.7 1.9
v 1.7 0.7 1.9
v -2.1 0.7 1.8
v -1.8 0.7 1.8
v 1.4 0.7 1.8
v 1.7 0.7 1.8
v -2.1 0.7 -1.9
v -1.8 0.7 -1.9
v 1.4 0.7 -1.9
v 1.7 0.7 -1.9
v -2.1 0.7 -2
v -1.8 0.7 -2
v 1.4 0.7 -2
v 1.7 0.7 -2
v -1.6 0.7 -2.2
v -1.5 0.7 -2.2
v 1.1 0.7 -2.2
v 1.2 0.7 -2.2
v -1.6 0.7 -2.5
v -1.5 0.7 -2.5
v 1.1 0.7 -2.5
v 1.2 0.7 -2.5
v -1.7 0.8 2.4
v -1.6 0.8 2.4
v 1.2 0.8 2.4
v 1.3 0.8 2.4
v -1.7 0.8 2.1
v -1.6 0.8 2.1
v 1.2 0.8 2.1
v 1.3 0.8 2.1
v -2.1 0.8 2
v -1.8 0.8 2
v 1.4 0.8 2
v 1.7 0.8 2
v -2.1 0.8 1.9
v -1.8 0.8 1.9
v 1.4 0.8 1.9
v 1.7 0.8 1.9
v -2.1 0.8 -2
v -1.8 0.8 -2
v 1.4 0.8 -2
v 1.7 0.8 -2
v -2.1 0.8 -2.1
v -1.8 0.8 -2.1
v 1.4 0.8 -2.1
v 1.7 0.8 -2.1
v -1.7 0.8 -2.2
v -1.6 0.8 -2.2
v 1.2 0.8 -2.2
v 1.3 0.8 -2.2
v -1.7 0.8 -2.5
v -1.6 0.8 -2.5
v 1.2 0.8 -2.5
v 1.3 0.8 -2.5
v -1.8 0.9 2.4
v -1.7 0.9 2.4
v 1.3 0.9 2.4
v 1.4 0.9 2.4
v -2.1 0.9 2.1
v -1.8 0.9 2.1
v -1.7 0.9 2.1
v 1.3 0.9 2.1
v 1.4 0.9 2.1
v 1.7 0.9 2.1
v -2.1 0.9 2
v -1.8 0.9 2
v 1.4 0.9 2
v 1.7 0.9 2
v -2.1 0.9 -2.1
v -1.8 0.9 -2.1
v 1.4 0.9 -2.1
v 1.7 0.9 -2.1
v -2.1 0.9 -2.2
v -1.8 0.9 -2.2
v -1.7 0.9 -2.2
v 1.3 0.9 -2.2
v 1.4 0.9 -2.2
v 1.7 0.9 -2.2
v -1.8 0.9 -2.5
v -1.7 0.9 -2.5
v 1.3 0.9 -2.5
v 1.4 0.9 -2.5
v -2.1 3.2 2.4
v 1.7 3.2 2.4
v -1.1 3.2 2.1
v 0.7 3.2 2.1
v -1.2 3.2 2
v -1.1 3.2 2
v 0.7 3.2 2
v 0.8 3.2 2
v -1.3 3.2 1.9
v -1.2 3.2 1.9
v 0.8 3.2 1.9
v 0.9 3.2 1.9
v -1.4 3.2 1.8
v -1.3 3.2 1.8
v 0.9 3.2 1.8
v 1 3.2 1.8
v -1.5 3.2 1.7
v -1.4 3.2 1.7
v 1 3.2 1.7
v 1.1 3.2 1.7
v -1.6 3.2 1.6
v -1.5 3.2 1.6
v 1.1 3.2 1.6
v 1.2 3.2 1.6
v -1.7 3.2 1.5
v -1.6 3.2 1.5
v 1.2 3.2 1.5
v 1.3 3.2 1.5
v -1.8 3.2 1.4
v -1.7 3.2 1.4
v 1.3 3.2 1.4
v 1.4 3.2 1.4
v -1.8 3.2 -1.4
v -1.7 3.2 -1.4
v -1.7 3.2 -1.5
v -1.6 3.2 -1.5
v -1.6 3.2 -1.6
v -1.5 3.2 -1.6
v 1.3 3.2 -1.6
v 1.4 3.2 -1.6
v -1.5 3.2 -1.7
v -1.4 3.2 -1.7
v 1.2 3.2 -1.7
v 1.3 3.2 -1.7
v -1.4 3.2 -1.8
v -1.3 3.2 -1.8
v 1.1 3.2 -1.8
v 1.2 3.2 -1.8
v -1.3 3.2 -1.9
v -1.2 3.2 -1.9
v 1 3.2 -1.9
v 1.1 3.2 -1.9
v -1.2 3.2 -2
v -1.1 3.2 -2
v 0.9 3.2 -2
v 1 3.2 -2
v -1.1 3.2 -2.1
v -1 3.2 -2.1
v 0.8 3.2 -2.1
v 0.9 3.2 -2.1
v -1 3.2 -2.2
v 0.8 3.2 -2.2
v -2.1 3.2 -2.5
v 1.7 3.2 -2.5

# faces
f 3/1/1 2/1/1 1/1/1
f 4/1/1 2/1/1 3/1/1
f 5/1/1 3/1/1 1/1/1
f 6/1/1 3/1/1 5/1/1
f 7/1/1 2/1/1 4/1/1
f 8/1/1 2/1/1 7/1/1
f 9/1/1 5/1/1 1/1/1
f 10/1/1 5/1/1 9/1/1
f 11/1/1 2/1/1 8/1/1
f 12/1/1 2/1/1 11/1/1
f 13/1/1 9/1/1 1/1/1
f 14/1/1 9/1/1 13/1/1
f 15/1/1 2/1/1 12/1/1
f 16/1/1 2/1/1 15/1/1
f 17/1/1 13/1/1 1/1/1
f 18/1/1 13/1/1 17/1/1
f 19/1/1 2/1/1 16/1/1
f 20/1/1 2/1/1 19/1/1
f 21/1/1 17/1/1 1/1/1
f 22/1/1 17/1/1 21/1/1
f 23/1/1 2/1/1 20/1/1
f 24/1/1 2/1/1 23/1/1
f 25/1/1 21/1/1 1/1/1
f 26/1/1 21/1/1 25/1/1
f 27/1/1 2/1/1 24/1/1
f 28/1/1 2/1/1 27/1/1
f 29/1/1 25/1/1 1/1/1
f 32/1/1 2/1/1 28/1/1
f 33/1/1 30/1/1 29/1/1
f 36/1/1 32/1/1 31/1/1
f 37/1/1 34/1/1 33/1/1
f 40/1/1 36/1/1 35/1/1
f 41/1/1 38/1/1 37/1/1
f 44/1/1 40/1/1 39/1/1
f 45/1/1 42/1/1 41/1/1
f 48/1/1 44/1/1 43/1/1
f 49/1/1 46/1/1 45/1/1
f 52/1/1 48/1/1 47/1/1
f 53/1/1 50/1/1 49/1/1
f 54/1/1 52/1/1 51/1/1
f 55/1/1 53/1/1 49/1/1
f 55/1/1 54/1/1 53/1/1
f 55/1/1 29/1/1 1/1/1
f 55/1/1 33/1/1 29/1/1
f 55/1/1 37/1/1 33/1/1
f 55/1/1 41/1/1 37/1/1
f 55/1/1 49/1/1 45/1/1
f 55/1/1 45/1/1 41/1/1
f 56/1/1 52/1/1 54/1/1
f 56/1/1 54/1/1 55/1/1
f 56/1/1 2/1/1 32/1/1
f 56/1/1 48/1/1 52/1/1
f 56/1/1 40/1/1 44/1/1
f 56/1/1 32/1/1 36/1/1
f 56/1/1 44/1/1 48/1/1
f 56/1/1 36/1/1 40/1/1
f 59/1/1 58/1/1 57/1/1
f 60/1/1 58/1/1 59/1/1
f 65/1/1 62/1/1 61/1/1
f 66/1/1 62/1/1 65/1/1
f 67/1/1 64/1/1 63/1/1
f 68/1/1 64/1/1 67/1/1
f 73/1/1 70/1/1 69/1/1
f 74/1/1 70/1/1 73/1/1
f 78/1/1 72/1/1 71/1/1
f 79/1/1 72/1/1 78/1/1
f 80/1/1 76/1/1 75/1/1
f 81/1/1 76/1/1 80/1/1
f 82/1/1 78/1/1 77/1/1
f 83/1/1 78/1/1 82/1/1
f 88/1/1 85/1/1 84/1/1
f 89/1/1 85/1/1 88/1/1
f 90/1/1 87/1/1 86/1/1
f 91/1/1 87/1/1 90/1/1
f 96/1/1 93/1/1 92/1/1
f 97/1/1 93/1/1 96/1/1
f 98/1/1 95/1/1 94/1/1
f 99/1/1 95/1/1 98/1/1
f 104/1/1 101/1/1 100/1/1
f 105/1/1 101/1/1 104/1/1
f 106/1/1 103/1/1 102/1/1
f 107/1/1 103/1/1 106/1/1
f 112/1/1 109/1/1 108/1/1
f 113/1/1 109/1/1 112/1/1
f 114/1/1 111/1/1 110/1/1
f 115/1/1 111/1/1 114/1/1
f 120/1/1 117/1/1 116/1/1
f 121/1/1 117/1/1 120/1/1
f 122/1/1 119/1/1 118/1/1
f 123/1/1 119/1/1 122/1/1
f 128/1/1 125/1/1 124/1/1
f 129/1/1 125/1/1 128/1/1
f 130/1/1 127/1/1 126/1/1
f 131/1/1 127/1/1 130/1/1
f 136/1/1 133/1/1 132/1/1
f 137/1/1 133/1/1 136/1/1
f 138/1/1 135/1/1 134/1/1
f 139/1/1 135/1/1 138/1/1
f 144/1/1 141/1/1 140/1/1
f 145/1/1 141/1/1 144/1/1
f 146/1/1 143/1/1 142/1/1
f 147/1/1 143/1/1 146/1/1
f 152/1/1 149/1/1 148/1/1
f 153/1/1 149/1/1 152/1/1
f 154/1/1 151/1/1 150/1/1
f 155/1/1 151/1/1 154/1/1
f 160/1/1 157/1/1 156/1/1
f 161/1/1 157/1/1 160/1/1
f 162/1/1 159/1/1 158/1/1
f 163/1/1 159/1/1 162/1/1
f 168/1/1 165/1/1 164/1/1
f 169/1/1 165/1/1 168/1/1
f 170/1/1 167/1/1 166/1/1
f 171/1/1 167/1/1 170/1/1
f 176/1/1 173/1/1 172/1/1
f 177/1/1 173/1/1 176/1/1
f 178/1/1 175/1/1 174/1/1
f 179/1/1 175/1/1 178/1/1
f 184/1/1 181/1/1 180/1/1
f 185/1/1 181/1/1 184/1/1
f 186/1/1 183/1/1 182/1/1
f 187/1/1 183/1/1 186/1/1
f 192/1/1 189/1/1 188/1/1
f 193/1/1 189/1/1 192/1/1
f 194/1/1 191/1/1 190/1/1
f 195/1/1 191/1/1 194/1/1
f 200/1/1 197/1/1 196/1/1
f 201/1/1 197/1/1 200/1/1
f 202/1/1 199/1/1 198/1/1
f 203/1/1 199/1/1 202/1/1
f 208/1/1 205/1/1 204/1/1
f 209/1/1 205/1/1 208/1/1
f 210/1/1 207/1/1 206/1/1
f 211/1/1 207/1/1 210/1/1
f 212/1/1 208/1/1 204/1/1
f 213/1/1 208/1/1 212/1/1
f 214/1/1 207/1/1 211/1/1
f 215/1/1 207/1/1 214/1/1
f 216/1/1 212/1/1 204/1/1
f 217/1/1 212/1/1 216/1/1
f 218/1/1 207/1/1 215/1/1
f 219/1/1 207/1/1 218/1/1
f 220/1/1 216/1/1 204/1/1
f 221/1/1 216/1/1 220/1/1
f 222/1/1 207/1/1 219/1/1
f 223/1/1 207/1/1 222/1/1
f 224/1/1 220/1/1 204/1/1
f 225/1/1 220/1/1 224/1/1
f 226/1/1 207/1/1 223/1/1
f 227/1/1 207/1/1 226/1/1
f 229/1/1 224/1/1 204/1/1
f 230/1/1 224/1/1 229/1/1
f 231/1/1 207/1/1 227/1/1
f 232/1/1 207/1/1 231/1/1
f 234/1/1 229/1/1 228/1/1
f 235/1/1 229/1/1 234/1/1
f 238/1/1 233/1/1 232/1/1
f 239/1/1 233/1/1 238/1/1
f 240/1/1 236/1/1 235/1/1
f 243/1/1 238/1/1 237/1/1
f 244/1/1 241/1/1 240/1/1
f 247/1/1 243/1/1 242/1/1
f 248/1/1 245/1/1 244/1/1
f 251/1/1 247/1/1 246/1/1
f 252/1/1 249/1/1 248/1/1
f 255/1/1 251/1/1 250/1/1
f 256/1/1 253/1/1 252/1/1
f 259/1/1 255/1/1 254/1/1
f 260/1/1 257/1/1 256/1/1
f 260/1/1 240/1/1 235/1/1
f 260/1/1 244/1/1 240/1/1
f 260/1/1 248/1/1 244/1/1
f 260/1/1 256/1/1 252/1/1
f 260/1/1 252/1/1 248/1/1
f 261/1/1 257/1/1 260/1/1
f 263/1/1 259/1/1 258/1/1
f 264/1/1 255/1/1 259/1/1
f 264/1/1 238/1/1 243/1/1
f 264/1/1 259/1/1 263/1/1
f 264/1/1 243/1/1 247/1/1
f 264/1/1 251/1/1 255/1/1
f 264/1/1 247/1/1 251/1/1
f 265/1/1 263/1/1 262/1/1
f 266/1/1 263/1/1 265/1/1
f 267/1/2 268/1/2 271/1/2
f 271/1/2 268/1/2 272/1/2
f 269/1/2 270/1/2 273/1/2
f 273/1/2 270/1/2 274/1/2
f 267/1/2 271/1/2 275/1/2
f 275/1/2 271/1/2 276/1/2
f 274/1/2 270/1/2 277/1/2
f 277/1/2 270/1/2 278/1/2
f 267/1/2 275/1/2 279/1/2
f 279/1/2 275/1/2 280/1/2
f 278/1/2 270/1/2 281/1/2
f 281/1/2 270/1/2 282/1/2
f 267/1/2 279/1/2 283/1/2
f 283/1/2 279/1/2 284/1/2
f 282/1/2 270/1/2 285/1/2
f 285/1/2 270/1/2 286/1/2
f 267/1/2 283/1/2 287/1/2
f 287/1/2 283/1/2 288/1/2
f 286/1/2 270/1/2 289/1/2
f 289/1/2 270/1/2 290/1/2
f 267/1/2 287/1/2 292/1/2
f 292/1/2 287/1/2 293/1/2
f 290/1/2 270/1/2 294/1/2
f 294/1/2 270/1/2 295/1/2
f 291/1/2 292/1/2 297/1/2
f 297/1/2 292/1/2 298/1/2
f 295/1/2 296/1/2 301/1/2
f 301/1/2 296/1/2 302/1/2
f 298/1/2 299/1/2 303/1/2
f 300/1/2 301/1/2 306/1/2
f 303/1/2 304/1/2 307/1/2
f 305/1/2 306/1/2 310/1/2
f 307/1/2 308/1/2 311/1/2
f 309/1/2 310/1/2 314/1/2
f 311/1/2 312/1/2 315/1/2
f 313/1/2 314/1/2 318/1/2
f 315/1/2 316/1/2 319/1/2
f 317/1/2 318/1/2 322/1/2
f 319/1/2 320/1/2 323/1/2
f 298/1/2 303/1/2 323/1/2
f 303/1/2 307/1/2 323/1/2
f 307/1/2 311/1/2 323/1/2
f 315/1/2 319/1/2 323/1/2
f 311/1/2 315/1/2 323/1/2
f 323/1/2 320/1/2 324/1/2
f 321/1/2 322/1/2 327/1/2
f 322/1/2 318/1/2 328/1/2
f 327/1/2 322/1/2 328/1/2
f 306/1/2 301/1/2 328/1/2
f 310/1/2 306/1/2 328/1/2
f 318/1/2 314/1/2 328/1/2
f 314/1/2 310/1/2 328/1/2
f 325/1/2 326/1/2 329/1/2
f 329/1/2 326/1/2 330/1/2
f 331/1/2 332/1/2 335/1/2
f 335/1/2 332/1/2 336/1/2
f 333/1/2 334/1/2 337/1/2
f 337/1/2 334/1/2 338/1/2
f 339/1/2 340/1/2 343/1/2
f 343/1/2 340/1/2 344/1/2
f 341/1/2 342/1/2 345/1/2
f 345/1/2 342/1/2 346/1/2
f 347/1/2 348/1/2 351/1/2
f 351/1/2 348/1/2 352/1/2
f 349/1/2 350/1/2 353/1/2
f 353/1/2 350/1/2 354/1/2
f 355/1/2 356/1/2 359/1/2
f 359/1/2 356/1/2 360/1/2
f 357/1/2 358/1/2 361/1/2
f 361/1/2 358/1/2 362/1/2
f 363/1/2 364/1/2 367/1/2
f 367/1/2 364/1/2 368/1/2
f 365/1/2 366/1/2 369/1/2
f 369/1/2 366/1/2 370/1/2
f 371/1/2 372/1/2 375/1/2
f 375/1/2 372/1/2 376/1/2
f 373/1/2 374/1/2 377/1/2
f 377/1/2 374/1/2 378/1/2
f 379/1/2 380/1/2 383/1/2
f 383/1/2 380/1/2 384/1/2
f 381/1/2 382/1/2 385/1/2
f 385/1/2 382/1/2 386/1/2
f 387/1/2 388/1/2 391/1/2
f 391/1/2 388/1/2 392/1/2
f 389/1/2 390/1/2 393/1/2
f 393/1/2 390/1/2 394/1/2
f 395/1/2 396/1/2 399/1/2
f 399/1/2 396/1/2 400/1/2
f 397/1/2 398/1/2 401/1/2
f 401/1/2 398/1/2 402/1/2
f 403/1/2 404/1/2 407/1/2
f 407/1/2 404/1/2 408/1/2
f 405/1/2 406/1/2 409/1/2
f 409/1/2 406/1/2 410/1/2
f 411/1/2 412/1/2 415/1/2
f 415/1/2 412/1/2 416/1/2
f 413/1/2 414/1/2 417/1/2
f 417/1/2 414/1/2 418/1/2
f 419/1/2 420/1/2 423/1/2
f 423/1/2 420/1/2 424/1/2
f 421/1/2 422/1/2 425/1/2
f 425/1/2 422/1/2 426/1/2
f 427/1/2 428/1/2 431/1/2
f 431/1/2 428/1/2 432/1/2
f 429/1/2 430/1/2 433/1/2
f 433/1/2 430/1/2 434/1/2
f 435/1/2 436/1/2 439/1/2
f 439/1/2 436/1/2 440/1/2
f 437/1/2 438/1/2 441/1/2
f 441/1/2 438/1/2 442/1/2
f 443/1/2 444/1/2 447/1/2
f 447/1/2 444/1/2 448/1/2
f 445/1/2 446/1/2 449/1/2
f 449/1/2 446/1/2 450/1/2
f 451/1/2 452/1/2 455/1/2
f 455/1/2 452/1/2 456/1/2
f 453/1/2 454/1/2 457/1/2
f 457/1/2 454/1/2 458/1/2
f 459/1/2 460/1/2 461/1/2
f 461/1/2 460/1/2 462/1/2
f 463/1/2 464/1/2 467/1/2
f 467/1/2 464/1/2 468/1/2
f 465/1/2 466/1/2 469/1/2
f 469/1/2 466/1/2 470/1/2
f 471/1/2 472/1/2 475/1/2
f 475/1/2 472/1/2 476/1/2
f 473/1/2 474/1/2 477/1/2
f 477/1/2 474/1/2 478/1/2
f 479/1/2 480/1/2 482/1/2
f 482/1/2 480/1/2 483/1/2
f 481/1/2 482/1/2 484/1/2
f 484/1/2 482/1/2 485/1/2
f 486/1/2 487/1/2 488/1/2
f 488/1/2 487/1/2 489/1/2
f 486/1/2 488/1/2 490/1/2
f 490/1/2 488/1/2 491/1/2
f 489/1/2 487/1/2 492/1/2
f 492/1/2 487/1/2 493/1/2
f 486/1/2 490/1/2 494/1/2
f 494/1/2 490/1/2 495/1/2
f 493/1/2 487/1/2 496/1/2
f 496/1/2 487/1/2 497/1/2
f 486/1/2 494/1/2 498/1/2
f 498/1/2 494/1/2 499/1/2
f 497/1/2 487/1/2 500/1/2
f 500/1/2 487/1/2 501/1/2
f 486/1/2 498/1/2 502/1/2
f 502/1/2 498/1/2 503/1/2
f 501/1/2 487/1/2 504/1/2
f 504/1/2 487/1/2 505/1/2
f 486/1/2 502/1/2 506/1/2
f 506/1/2 502/1/2 507/1/2
f 505/1/2 487/1/2 508/1/2
f 508/1/2 487/1/2 509/1/2
f 486/1/2 506/1/2 510/1/2
f 510/1/2 506/1/2 511/1/2
f 509/1/2 487/1/2 512/1/2
f 512/1/2 487/1/2 513/1/2
f 486/1/2 510/1/2 514/1/2
f 513/1/2 487/1/2 517/1/2
f 514/1/2 515/1/2 518/1/2
f 516/1/2 517/1/2 521/1/2
f 518/1/2 519/1/2 522/1/2
f 520/1/2 521/1/2 525/1/2
f 522/1/2 523/1/2 526/1/2
f 524/1/2 525/1/2 529/1/2
f 526/1/2 527/1/2 530/1/2
f 528/1/2 529/1/2 533/1/2
f 530/1/2 531/1/2 534/1/2
f 532/1/2 533/1/2 537/1/2
f 534/1/2 535/1/2 538/1/2
f 536/1/2 537/1/2 539/1/2
f 534/1/2 538/1/2 540/1/2
f 538/1/2 539/1/2 540/1/2
f 486/1/2 514/1/2 540/1/2
f 514/1/2 518/1/2 540/1/2
f 518/1/2 522/1/2 540/1/2
f 522/1/2 526/1/2 540/1/2
f 530/1/2 534/1/2 540/1/2
f 526/1/2 530/1/2 540/1/2
f 539/1/2 537/1/2 541/1/2
f 540/1/2 539/1/2 541/1/2
f 517/1/2 487/1/2 541/1/2
f 537/1/2 533/1/2 541/1/2
f 529/1/2 525/1/2 541/1/2
f 521/1/2 517/1/2 541/1/2
f 533/1/2 529/1/2 541/1/2
f 525/1/2 521/1/2 541/1/2
f 544/1/3 543/1/3 542/1/3
f 545/1/3 543/1/3 544/1/3
f 546/1/3 544/1/3 542/1/3
f 547/1/3 544/1/3 546/1/3
f 548/1/3 543/1/3 545/1/3
f 549/1/3 543/1/3 548/1/3
f 550/1/3 546/1/3 542/1/3
f 551/1/3 546/1/3 550/1/3
f 552/1/3 543/1/3 549/1/3
f 553/1/3 543/1/3 552/1/3
f 554/1/3 550/1/3 542/1/3
f 555/1/3 550/1/3 554/1/3
f 556/1/3 543/1/3 553/1/3
f 557/1/3 543/1/3 556/1/3
f 558/1/3 554/1/3 542/1/3
f 559/1/3 554/1/3 558/1/3
f 560/1/3 543/1/3 557/1/3
f 561/1/3 543/1/3 560/1/3
f 562/1/3 558/1/3 542/1/3
f 563/1/3 558/1/3 562/1/3
f 564/1/3 543/1/3 561/1/3
f 565/1/3 543/1/3 564/1/3
f 566/1/3 562/1/3 542/1/3
f 567/1/3 562/1/3 566/1/3
f 568/1/3 543/1/3 565/1/3
f 569/1/3 543/1/3 568/1/3
f 570/1/3 566/1/3 542/1/3
f 573/1/3 543/1/3 569/1/3
f 574/1/3 571/1/3 570/1/3
f 577/1/3 573/1/3 572/1/3
f 578/1/3 575/1/3 574/1/3
f 581/1/3 577/1/3 576/1/3
f 582/1/3 579/1/3 578/1/3
f 585/1/3 581/1/3 580/1/3
f 586/1/3 583/1/3 582/1/3
f 589/1/3 585/1/3 584/1/3
f 590/1/3 587/1/3 586/1/3
f 593/1/3 589/1/3 588/1/3
f 594/1/3 591/1/3 590/1/3
f 595/1/3 593/1/3 592/1/3
f 596/1/3 594/1/3 590/1/3
f 596/1/3 595/1/3 594/1/3
f 596/1/3 570/1/3 542/1/3
f 596/1/3 574/1/3 570/1/3
f 596/1/3 578/1/3 574/1/3
f 596/1/3 582/1/3 578/1/3
f 596/1/3 590/1/3 586/1/3
f 596/1/3 586/1/3 582/1/3
f 597/1/3 593/1/3 595/1/3
f 597/1/3 595/1/3 596/1/3
f 597/1/3 543/1/3 573/1/3
f 597/1/3 589/1/3 593/1/3
f 597/1/3 581/1/3 585/1/3
f 597/1/3 573/1/3 577/1/3
f 597/1/3 585/1/3 589/1/3
f 597/1/3 577/1/3 581/1/3
f 600/1/3 599/1/3 598/1/3
f 601/1/3 599/1/3 600/1/3
f 604/1/3 603/1/3 602/1/3
f 605/1/3 603/1/3 604/1/3
f 610/1/3 607/1/3 606/1/3
f 611/1/3 607/1/3 610/1/3
f 612/1/3 609/1/3 608/1/3
f 613/1/3 609/1/3 612/1/3
f 616/1/3 615/1/3 614/1/3
f 617/1/3 615/1/3 616/1/3
f 623/1/3 619/1/3 618/1/3
f 624/1/3 619/1/3 623/1/3
f 625/1/3 621/1/3 620/1/3
f 626/1/3 621/1/3 625/1/3
f 627/1/3 623/1/3 622/1/3
f 628/1/3 623/1/3 627/1/3
f 633/1/3 630/1/3 629/1/3
f 634/1/3 630/1/3 633/1/3
f 635/1/3 632/1/3 631/1/3
f 636/1/3 632/1/3 635/1/3
f 639/1/3 638/1/3 637/1/3
f 640/1/3 638/1/3 639/1/3
f 643/1/3 642/1/3 641/1/3
f 644/1/3 642/1/3 643/1/3
f 649/1/3 646/1/3 645/1/3
f 650/1/3 646/1/3 649/1/3
f 651/1/3 648/1/3 647/1/3
f 652/1/3 648/1/3 651/1/3
f 657/1/3 654/1/3 653/1/3
f 658/1/3 654/1/3 657/1/3
f 659/1/3 656/1/3 655/1/3
f 660/1/3 656/1/3 659/1/3
f 663/1/3 662/1/3 661/1/3
f 664/1/3 662/1/3 663/1/3
f 667/1/3 666/1/3 665/1/3
f 668/1/3 666/1/3 667/1/3
f 673/1/3 670/1/3 669/1/3
f 674/1/3 670/1/3 673/1/3
f 675/1/3 672/1/3 671/1/3
f 676/1/3 672/1/3 675/1/3
f 681/1/3 678/1/3 677/1/3
f 682/1/3 678/1/3 681/1/3
f 683/1/3 680/1/3 679/1/3
f 684/1/3 680/1/3 683/1/3
f 687/1/3 686/1/3 685/1/3
f 688/1/3 686/1/3 687/1/3
f 691/1/3 690/1/3 689/1/3
f 692/1/3 690/1/3 691/1/3
f 697/1/3 694/1/3 693/1/3
f 698/1/3 694/1/3 697/1/3
f 699/1/3 696/1/3 695/1/3
f 700/1/3 696/1/3 699/1/3
f 705/1/3 702/1/3 701/1/3
f 706/1/3 702/1/3 705/1/3
f 707/1/3 704/1/3 703/1/3
f 708/1/3 704/1/3 707/1/3
f 711/1/3 710/1/3 709/1/3
f 712/1/3 710/1/3 711/1/3
f 715/1/3 714/1/3 713/1/3
f 716/1/3 714/1/3 715/1/3
f 721/1/3 718/1/3 717/1/3
f 722/1/3 718/1/3 721/1/3
f 723/1/3 720/1/3 719/1/3
f 724/1/3 720/1/3 723/1/3
f 729/1/3 726/1/3 725/1/3
f 730/1/3 726/1/3 729/1/3
f 731/1/3 728/1/3 727/1/3
f 732/1/3 728/1/3 731/1/3
f 735/1/3 734/1/3 733/1/3
f 736/1/3 734/1/3 735/1/3
f 739/1/3 738/1/3 737/1/3
f 740/1/3 738/1/3 739/1/3
f 745/1/3 742/1/3 741/1/3
f 746/1/3 742/1/3 745/1/3
f 747/1/3 744/1/3 743/1/3
f 748/1/3 744/1/3 747/1/3
f 752/1/3 750/1/3 749/1/3
f 753/1/3 750/1/3 752/1/3
f 755/1/3 752/1/3 751/1/3
f 756/1/3 752/1/3 755/1/3
f 757/1/3 754/1/3 753/1/3
f 758/1/3 754/1/3 757/1/3
f 759/1/3 755/1/3 751/1/3
f 760/1/3 755/1/3 759/1/3
f 761/1/3 754/1/3 758/1/3
f 762/1/3 754/1/3 761/1/3
f 763/1/3 759/1/3 751/1/3
f 764/1/3 759/1/3 763/1/3
f 765/1/3 754/1/3 762/1/3
f 766/1/3 754/1/3 765/1/3
f 767/1/3 763/1/3 751/1/3
f 768/1/3 763/1/3 767/1/3
f 769/1/3 754/1/3 766/1/3
f 770/1/3 754/1/3 769/1/3
f 771/1/3 767/1/3 751/1/3
f 772/1/3 767/1/3 771/1/3
f 773/1/3 754/1/3 770/1/3
f 774/1/3 754/1/3 773/1/3
f 775/1/3 771/1/3 751/1/3
f 776/1/3 771/1/3 775/1/3
f 777/1/3 754/1/3 774/1/3
f 778/1/3 754/1/3 777/1/3
f 783/1/3 779/1/3 778/1/3
f 784/1/3 779/1/3 783/1/3
f 785/1/3 781/1/3 780/1/3
f 788/1/3 783/1/3 782/1/3
f 789/1/3 786/1/3 785/1/3
f 792/1/3 788/1/3 787/1/3
f 793/1/3 790/1/3 789/1/3
f 796/1/3 792/1/3 791/1/3
f 797/1/3 794/1/3 793/1/3
f 800/1/3 796/1/3 795/1/3
f 801/1/3 798/1/3 797/1/3
f 804/1/3 800/1/3 799/1/3
f 805/1/3 802/1/3 801/1/3
f 805/1/3 785/1/3 780/1/3
f 805/1/3 789/1/3 785/1/3
f 805/1/3 793/1/3 789/1/3
f 805/1/3 801/1/3 797/1/3
f 805/1/3 797/1/3 793/1/3
f 806/1/3 802/1/3 805/1/3
f 807/1/3 804/1/3 803/1/3
f 808/1/3 800/1/3 804/1/3
f 808/1/3 783/1/3 788/1/3
f 808/1/3 804/1/3 807/1/3
f 808/1/3 788/1/3 792/1/3
f 808/1/3 796/1/3 800/1/3
f 808/1/3 792/1/3 796/1/3
f 809/1/3 807/1/3 806/1/3
f 810/1/3 807/1/3 809/1/3
f 811/1/4 812/1/4 814/1/4
f 814/1/4 812/1/4 815/1/4
f 813/1/4 814/1/4 817/1/4
f 817/1/4 814/1/4 818/1/4
f 815/1/4 816/1/4 819/1/4
f 819/1/4 816/1/4 820/1/4
f 813/1/4 817/1/4 821/1/4
f 821/1/4 817/1/4 822/1/4
f 820/1/4 816/1/4 823/1/4
f 823/1/4 816/1/4 824/1/4
f 813/1/4 821/1/4 825/1/4
f 825/1/4 821/1/4 826/1/4
f 824/1/4 816/1/4 827/1/4
f 827/1/4 816/1/4 828/1/4
f 813/1/4 825/1/4 829/1/4
f 829/1/4 825/1/4 830/1/4
f 828/1/4 816/1/4 831/1/4
f 831/1/4 816/1/4 832/1/4
f 813/1/4 829/1/4 833/1/4
f 833/1/4 829/1/4 834/1/4
f 832/1/4 816/1/4 835/1/4
f 835/1/4 816/1/4 836/1/4
f 813/1/4 833/1/4 837/1/4
f 837/1/4 833/1/4 838/1/4
f 836/1/4 816/1/4 839/1/4
f 839/1/4 816/1/4 840/1/4
f 841/1/4 842/1/4 843/1/4
f 843/1/4 842/1/4 844/1/4
f 845/1/4 846/1/4 849/1/4
f 847/1/4 848/1/4 852/1/4
f 849/1/4 850/1/4 853/1/4
f 851/1/4 852/1/4 856/1/4
f 853/1/4 854/1/4 857/1/4
f 855/1/4 856/1/4 860/1/4
f 857/1/4 858/1/4 861/1/4
f 859/1/4 860/1/4 864/1/4
f 861/1/4 862/1/4 865/1/4
f 863/1/4 864/1/4 868/1/4
f 865/1/4 866/1/4 869/1/4
f 845/1/4 849/1/4 869/1/4
f 849/1/4 853/1/4 869/1/4
f 853/1/4 857/1/4 869/1/4
f 861/1/4 865/1/4 869/1/4
f 857/1/4 861/1/4 869/1/4
f 869/1/4 866/1/4 870/1/4
f 867/1/4 868/1/4 871/1/4
f 868/1/4 864/1/4 872/1/4
f 852/1/4 848/1/4 872/1/4
f 871/1/4 868/1/4 872/1/4
f 856/1/4 852/1/4 872/1/4
f 864/1/4 860/1/4 872/1/4
f 860/1/4 856/1/4 872/1/4
f 870/1/4 871/1/4 873/1/4
f 873/1/4 871/1/4 874/1/4
f 875/1/4 876/1/4 879/1/4
f 879/1/4 876/1/4 880/1/4
f 877/1/4 878/1/4 881/1/4
f 881/1/4 878/1/4 882/1/4
f 883/1/4 884/1/4 885/1/4
f 885/1/4 884/1/4 886/1/4
f 887/1/4 888/1/4 889/1/4
f 889/1/4 888/1/4 890/1/4
f 891/1/4 892/1/4 895/1/4
f 895/1/4 892/1/4 896/1/4
f 893/1/4 894/1/4 897/1/4
f 897/1/4 894/1/4 898/1/4
f 899/1/4 900/1/4 903/1/4
f 903/1/4 900/1/4 904/1/4
f 901/1/4 902/1/4 905/1/4
f 905/1/4 902/1/4 906/1/4
f 907/1/4 908/1/4 909/1/4
f 909/1/4 908/1/4 910/1/4
f 911/1/4 912/1/4 913/1/4
f 913/1/4 912/1/4 914/1/4
f 915/1/4 916/1/4 919/1/4
f 919/1/4 916/1/4 920/1/4
f 917/1/4 918/1/4 921/1/4
f 921/1/4 918/1/4 922/1/4
f 923/1/4 924/1/4 927/1/4
f 927/1/4 924/1/4 928/1/4
f 925/1/4 926/1/4 929/1/4
f 929/1/4 926/1/4 930/1/4
f 931/1/4 932/1/4 933/1/4
f 933/1/4 932/1/4 934/1/4
f 935/1/4 936/1/4 937/1/4
f 937/1/4 936/1/4 938/1/4
f 939/1/4 940/1/4 943/1/4
f 943/1/4 940/1/4 944/1/4
f 941/1/4 942/1/4 945/1/4
f 945/1/4 942/1/4 946/1/4
f 947/1/4 948/1/4 951/1/4
f 951/1/4 948/1/4 952/1/4
f 949/1/4 950/1/4 953/1/4
f 953/1/4 950/1/4 954/1/4
f 955/1/4 956/1/4 957/1/4
f 957/1/4 956/1/4 958/1/4
f 959/1/4 960/1/4 961/1/4
f 961/1/4 960/1/4 962/1/4
f 963/1/4 964/1/4 967/1/4
f 967/1/4 964/1/4 968/1/4
f 965/1/4 966/1/4 969/1/4
f 969/1/4 966/1/4 970/1/4
f 971/1/4 972/1/4 975/1/4
f 975/1/4 972/1/4 976/1/4
f 973/1/4 974/1/4 977/1/4
f 977/1/4 974/1/4 978/1/4
f 979/1/4 980/1/4 981/1/4
f 981/1/4 980/1/4 982/1/4
f 983/1/4 984/1/4 985/1/4
f 985/1/4 984/1/4 986/1/4
f 987/1/4 988/1/4 991/1/4
f 991/1/4 988/1/4 992/1/4
f 989/1/4 990/1/4 993/1/4
f 993/1/4 990/1/4 994/1/4
f 995/1/4 996/1/4 999/1/4
f 999/1/4 996/1/4 1000/1/4
f 997/1/4 998/1/4 1001/1/4
f 1001/1/4 998/1/4 1002/1/4
f 1003/1/4 1004/1/4 1005/1/4
f 1005/1/4 1004/1/4 1006/1/4
f 1007/1/4 1008/1/4 1009/1/4
f 1009/1/4 1008/1/4 1010/1/4
f 1011/1/4 1012/1/4 1015/1/4
f 1015/1/4 1012/1/4 1016/1/4
f 1013/1/4 1014/1/4 1017/1/4
f 1017/1/4 1014/1/4 1018/1/4
f 1019/1/4 1020/1/4 1021/1/4
f 1021/1/4 1020/1/4 1022/1/4
f 1023/1/4 1024/1/4 1025/1/4
f 1025/1/4 1024/1/4 1026/1/4
f 1027/1/4 1028/1/4 1029/1/4
f 1029/1/4 1028/1/4 1030/1/4
f 1027/1/4 1029/1/4 1031/1/4
f 1031/1/4 1029/1/4 1032/1/4
f 1030/1/4 1028/1/4 1033/1/4
f 1033/1/4 1028/1/4 1034/1/4
f 1027/1/4 1031/1/4 1035/1/4
f 1035/1/4 1031/1/4 1036/1/4
f 1034/1/4 1028/1/4 1037/1/4
f 1037/1/4 1028/1/4 1038/1/4
f 1027/1/4 1035/1/4 1039/1/4
f 1039/1/4 1035/1/4 1040/1/4
f 1038/1/4 1028/1/4 1041/1/4
f 1041/1/4 1028/1/4 1042/1/4
f 1027/1/4 1039/1/4 1043/1/4
f 1043/1/4 1039/1/4 1044/1/4
f 1042/1/4 1028/1/4 1045/1/4
f 1045/1/4 1028/1/4 1046/1/4
f 1027/1/4 1043/1/4 1047/1/4
f 1047/1/4 1043/1/4 1048/1/4
f 1046/1/4 1028/1/4 1049/1/4
f 1049/1/4 1028/1/4 1050/1/4
f 1027/1/4 1047/1/4 1051/1/4
f 1051/1/4 1047/1/4 1052/1/4
f 1050/1/4 1028/1/4 1053/1/4
f 1053/1/4 1028/1/4 1054/1/4
f 1027/1/4 1051/1/4 1055/1/4
f 1054/1/4 1028/1/4 1058/1/4
f 1055/1/4 1056/1/4 1059/1/4
f 1057/1/4 1058/1/4 1062/1/4
f 1059/1/4 1060/1/4 1063/1/4
f 1061/1/4 1062/1/4 1066/1/4
f 1063/1/4 1064/1/4 1067/1/4
f 1065/1/4 1066/1/4 1070/1/4
f 1067/1/4 1068/1/4 1071/1/4
f 1069/1/4 1070/1/4 1074/1/4
f 1071/1/4 1072/1/4 1075/1/4
f 1073/1/4 1074/1/4 1078/1/4
f 1075/1/4 1076/1/4 1079/1/4
f 1077/1/4 1078/1/4 1080/1/4
f 1075/1/4 1079/1/4 1081/1/4
f 1079/1/4 1080/1/4 1081/1/4
f 1027/1/4 1055/1/4 1081/1/4
f 1055/1/4 1059/1/4 1081/1/4
f 1059/1/4 1063/1/4 1081/1/4
f 1063/1/4 1067/1/4 1081/1/4
f 1071/1/4 1075/1/4 1081/1/4
f 1067/1/4 1071/1/4 1081/1/4
f 1080/1/4 1078/1/4 1082/1/4
f 1081/1/4 1080/1/4 1082/1/4
f 1058/1/4 1028/1/4 1082/1/4
f 1078/1/4 1074/1/4 1082/1/4
f 1070/1/4 1066/1/4 1082/1/4
f 1062/1/4 1058/1/4 1082/1/4
f 1074/1/4 1070/1/4 1082/1/4
f 1066/1/4 1062/1/4 1082/1/4
f 1085/1/5 1084/1/5 1083/1/5
f 1086/1/5 1084/1/5 1085/1/5
f 1092/1/5 1088/1/5 1087/1/5
f 1093/1/5 1088/1/5 1092/1/5
f 1094/1/5 1090/1/5 1089/1/5
f 1095/1/5 1090/1/5 1094/1/5
f 1097/1/5 1092/1/5 1091/1/5
f 1098/1/5 1092/1/5 1097/1/5
f 1099/1/5 1096/1/5 1095/1/5
f 1100/1/5 1096/1/5 1099/1/5
f 1105/1/5 1102/1/5 1101/1/5
f 1106/1/5 1102/1/5 1105/1/5
f 1109/1/5 1104/1/5 1103/1/5
f 1110/1/5 1104/1/5 1109/1/5
f 1111/1/5 1107/1/5 1106/1/5
f 1112/1/5 1107/1/5 1111/1/5
f 1113/1/5 1109/1/5 1108/1/5
f 1114/1/5 1109/1/5 1113/1/5
f 1119/1/5 1116/1/5 1115/1/5
f 1120/1/5 1116/1/5 1119/1/5
f 1121/1/5 1118/1/5 1117/1/5
f 1122/1/5 1118/1/5 1121/1/5
f 1127/1/5 1124/1/5 1123/1/5
f 1128/1/5 1124/1/5 1127/1/5
f 1129/1/5 1126/1/5 1125/1/5
f 1130/1/5 1126/1/5 1129/1/5
f 1135/1/5 1132/1/5 1131/1/5
f 1136/1/5 1132/1/5 1135/1/5
f 1137/1/5 1134/1/5 1133/1/5
f 1138/1/5 1134/1/5 1137/1/5
f 1143/1/5 1140/1/5 1139/1/5
f 1144/1/5 1140/1/5 1143/1/5
f 1145/1/5 1142/1/5 1141/1/5
f 1146/1/5 1142/1/5 1145/1/5
f 1151/1/5 1148/1/5 1147/1/5
f 1152/1/5 1148/1/5 1151/1/5
f 1153/1/5 1150/1/5 1149/1/5
f 1154/1/5 1150/1/5 1153/1/5
f 1159/1/5 1156/1/5 1155/1/5
f 1160/1/5 1156/1/5 1159/1/5
f 1161/1/5 1158/1/5 1157/1/5
f 1162/1/5 1158/1/5 1161/1/5
f 1167/1/5 1164/1/5 1163/1/5
f 1168/1/5 1164/1/5 1167/1/5
f 1169/1/5 1166/1/5 1165/1/5
f 1170/1/5 1166/1/5 1169/1/5
f 1175/1/5 1172/1/5 1171/1/5
f 1176/1/5 1172/1/5 1175/1/5
f 1177/1/5 1174/1/5 1173/1/5
f 1178/1/5 1174/1/5 1177/1/5
f 1183/1/5 1180/1/5 1179/1/5
f 1184/1/5 1180/1/5 1183/1/5
f 1185/1/5 1182/1/5 1181/1/5
f 1186/1/5 1182/1/5 1185/1/5
f 1191/1/5 1188/1/5 1187/1/5
f 1192/1/5 1188/1/5 1191/1/5
f 1193/1/5 1190/1/5 1189/1/5
f 1194/1/5 1190/1/5 1193/1/5
f 1199/1/5 1196/1/5 1195/1/5
f 1200/1/5 1196/1/5 1199/1/5
f 1201/1/5 1198/1/5 1197/1/5
f 1202/1/5 1198/1/5 1201/1/5
f 1207/1/5 1204/1/5 1203/1/5
f 1208/1/5 1204/1/5 1207/1/5
f 1209/1/5 1206/1/5 1205/1/5
f 1210/1/5 1206/1/5 1209/1/5
f 1215/1/5 1212/1/5 1211/1/5
f 1216/1/5 1212/1/5 1215/1/5
f 1217/1/5 1214/1/5 1213/1/5
f 1218/1/5 1214/1/5 1217/1/5
f 1223/1/5 1220/1/5 1219/1/5
f 1224/1/5 1220/1/5 1223/1/5
f 1225/1/5 1222/1/5 1221/1/5
f 1226/1/5 1222/1/5 1225/1/5
f 1231/1/5 1228/1/5 1227/1/5
f 1232/1/5 1228/1/5 1231/1/5
f 1233/1/5 1230/1/5 1229/1/5
f 1234/1/5 1230/1/5 1233/1/5
f 1239/1/5 1236/1/5 1235/1/5
f 1240/1/5 1236/1/5 1239/1/5
f 1241/1/5 1238/1/5 1237/1/5
f 1242/1/5 1238/1/5 1241/1/5
f 1247/1/5 1244/1/5 1243/1/5
f 1248/1/5 1244/1/5 1247/1/5
f 1249/1/5 1246/1/5 1245/1/5
f 1250/1/5 1246/1/5 1249/1/5
f 1255/1/5 1252/1/5 1251/1/5
f 1256/1/5 1252/1/5 1255/1/5
f 1257/1/5 1254/1/5 1253/1/5
f 1258/1/5 1254/1/5 1257/1/5
f 1263/1/5 1260/1/5 1259/1/5
f 1264/1/5 1260/1/5 1263/1/5
f 1265/1/5 1262/1/5 1261/1/5
f 1266/1/5 1262/1/5 1265/1/5
f 1271/1/5 1268/1/5 1267/1/5
f 1272/1/5 1268/1/5 1271/1/5
f 1273/1/5 1270/1/5 1269/1/5
f 1274/1/5 1270/1/5 1273/1/5
f 1278/1/5 1276/1/5 1275/1/5
f 1279/1/5 1276/1/5 1278/1/5
f 1280/1/5 1276/1/5 1279/1/5
f 1281/1/5 1276/1/5 1280/1/5
f 1283/1/5 1278/1/5 1277/1/5
f 1283/1/5 1279/1/5 1278/1/5
f 1284/1/5 1279/1/5 1283/1/5
f 1285/1/5 1282/1/5 1281/1/5
f 1285/1/5 1281/1/5 1280/1/5
f 1286/1/5 1282/1/5 1285/1/5
f 1287/1/5 1283/1/5 1277/1/5
f 1288/1/5 1283/1/5 1287/1/5
f 1289/1/5 1282/1/5 1286/1/5
f 1290/1/5 1282/1/5 1289/1/5
f 1291/1/5 1287/1/5 1277/1/5
f 1292/1/5 1287/1/5 1291/1/5
f 1293/1/5 1282/1/5 1290/1/5
f 1294/1/5 1282/1/5 1293/1/5
f 1295/1/5 1291/1/5 1277/1/5
f 1296/1/5 1291/1/5 1295/1/5
f 1297/1/5 1282/1/5 1294/1/5
f 1298/1/5 1282/1/5 1297/1/5
f 1299/1/5 1295/1/5 1277/1/5
f 1300/1/5 1295/1/5 1299/1/5
f 1301/1/5 1282/1/5 1298/1/5
f 1302/1/5 1282/1/5 1301/1/5
f 1304/1/5 1299/1/5 1277/1/5
f 1305/1/5 1299/1/5 1304/1/5
f 1306/1/5 1299/1/5 1305/1/5
f 1307/1/5 1282/1/5 1302/1/5
f 1308/1/5 1282/1/5 1307/1/5
f 1309/1/5 1282/1/5 1308/1/5
f 1311/1/5 1304/1/5 1303/1/5
f 1311/1/5 1305/1/5 1304/1/5
f 1312/1/5 1305/1/5 1311/1/5
f 1313/1/5 1310/1/5 1309/1/5
f 1313/1/5 1309/1/5 1308/1/5
f 1314/1/5 1310/1/5 1313/1/5
f 1315/1/5 1311/1/5 1303/1/5
f 1317/1/5 1316/1/5 1315/1/5
f 1319/1/5 1315/1/5 1303/1/5
f 1319/1/5 1318/1/5 1317/1/5
f 1319/1/5 1317/1/5 1315/1/5
f 1320/1/5 1318/1/5 1319/1/5
f 1321/1/5 1318/1/5 1320/1/5
f 1324/1/5 1310/1/5 1314/1/5
f 1325/1/5 1310/1/5 1324/1/5
f 1326/1/5 1322/1/5 1321/1/5
f 1326/1/5 1321/1/5 1320/1/5
f 1329/1/5 1324/1/5 1323/1/5
f 1330/1/5 1327/1/5 1326/1/5
f 1333/1/5 1329/1/5 1328/1/5
f 1334/1/5 1331/1/5 1330/1/5
f 1337/1/5 1333/1/5 1332/1/5
f 1338/1/5 1335/1/5 1334/1/5
f 1341/1/5 1337/1/5 1336/1/5
f 1342/1/5 1339/1/5 1338/1/5
f 1345/1/5 1341/1/5 1340/1/5
f 1346/1/5 1343/1/5 1342/1/5
f 1346/1/5 1326/1/5 1320/1/5
f 1346/1/5 1330/1/5 1326/1/5
f 1346/1/5 1334/1/5 1330/1/5
f 1346/1/5 1342/1/5 1338/1/5
f 1346/1/5 1338/1/5 1334/1/5
f 1347/1/5 1343/1/5 1346/1/5
f 1348/1/5 1345/1/5 1344/1/5
f 1349/1/5 1341/1/5 1345/1/5
f 1349/1/5 1324/1/5 1329/1/5
f 1349/1/5 1345/1/5 1348/1/5
f 1349/1/5 1329/1/5 1333/1/5
f 1349/1/5 1337/1/5 1341/1/5
f 1349/1/5 1333/1/5 1337/1/5
f 1350/1/5 1348/1/5 1347/1/5
f 1351/1/5 1348/1/5 1350/1/5
f 1352/1/6 1353/1/6 1355/1/6
f 1355/1/6 1353/1/6 1356/1/6
f 1354/1/6 1355/1/6 1359/1/6
f 1356/1/6 1357/1/6 1359/1/6
f 1355/1/6 1356/1/6 1359/1/6
f 1359/1/6 1357/1/6 1360/1/6
f 1358/1/6 1359/1/6 1362/1/6
f 1360/1/6 1361/1/6 1362/1/6
f 1359/1/6 1360/1/6 1362/1/6
f 1362/1/6 1361/1/6 1363/1/6
f 1363/1/6 1361/1/6 1364/1/6
f 1364/1/6 1361/1/6 1365/1/6
f 1363/1/6 1364/1/6 1366/1/6
f 1366/1/6 1364/1/6 1367/1/6
f 1367/1/6 1364/1/6 1368/1/6
f 1368/1/6 1364/1/6 1369/1/6
f 1367/1/6 1368/1/6 1370/1/6
f 1370/1/6 1368/1/6 1371/1/6
f 1372/1/6 1373/1/6 1376/1/6
f 1376/1/6 1373/1/6 1377/1/6
f 1374/1/6 1375/1/6 1378/1/6
f 1378/1/6 1375/1/6 1379/1/6
f 1380/1/6 1381/1/6 1384/1/6
f 1384/1/6 1381/1/6 1385/1/6
f 1382/1/6 1383/1/6 1386/1/6
f 1386/1/6 1383/1/6 1387/1/6
f 1388/1/6 1389/1/6 1392/1/6
f 1392/1/6 1389/1/6 1393/1/6
f 1390/1/6 1391/1/6 1394/1/6
f 1394/1/6 1391/1/6 1395/1/6
f 1396/1/6 1397/1/6 1400/1/6
f 1400/1/6 1397/1/6 1401/1/6
f 1398/1/6 1399/1/6 1402/1/6
f 1402/1/6 1399/1/6 1403/1/6
f 1404/1/6 1405/1/6 1408/1/6
f 1408/1/6 1405/1/6 1409/1/6
f 1406/1/6 1407/1/6 1410/1/6
f 1410/1/6 1407/1/6 1411/1/6
f 1412/1/6 1413/1/6 1416/1/6
f 1416/1/6 1413/1/6 1417/1/6
f 1414/1/6 1415/1/6 1418/1/6
f 1418/1/6 1415/1/6 1419/1/6
f 1420/1/6 1421/1/6 1424/1/6
f 1424/1/6 1421/1/6 1425/1/6
f 1422/1/6 1423/1/6 1426/1/6
f 1426/1/6 1423/1/6 1427/1/6
f 1428/1/6 1429/1/6 1432/1/6
f 1432/1/6 1429/1/6 1433/1/6
f 1430/1/6 1431/1/6 1434/1/6
f 1434/1/6 1431/1/6 1435/1/6
f 1436/1/6 1437/1/6 1440/1/6
f 1440/1/6 1437/1/6 1441/1/6
f 1438/1/6 1439/1/6 1442/1/6
f 1442/1/6 1439/1/6 1443/1/6
f 1444/1/6 1445/1/6 1448/1/6
f 1448/1/6 1445/1/6 1449/1/6
f 1446/1/6 1447/1/6 1450/1/6
f 1450/1/6 1447/1/6 1451/1/6
f 1452/1/6 1453/1/6 1456/1/6
f 1456/1/6 1453/1/6 1457/1/6
f 1454/1/6 1455/1/6 1458/1/6
f 1458/1/6 1455/1/6 1459/1/6
f 1460/1/6 1461/1/6 1464/1/6
f 1464/1/6 1461/1/6 1465/1/6
f 1462/1/6 1463/1/6 1466/1/6
f 1466/1/6 1463/1/6 1467/1/6
f 1468/1/6 1469/1/6 1472/1/6
f 1472/1/6 1469/1/6 1473/1/6
f 1470/1/6 1471/1/6 1474/1/6
f 1474/1/6 1471/1/6 1475/1/6
f 1476/1/6 1477/1/6 1480/1/6
f 1480/1/6 1477/1/6 1481/1/6
f 1478/1/6 1479/1/6 1482/1/6
f 1482/1/6 1479/1/6 1483/1/6
f 1484/1/6 1485/1/6 1488/1/6
f 1488/1/6 1485/1/6 1489/1/6
f 1486/1/6 1487/1/6 1490/1/6
f 1490/1/6 1487/1/6 1491/1/6
f 1492/1/6 1493/1/6 1496/1/6
f 1496/1/6 1493/1/6 1497/1/6
f 1494/1/6 1495/1/6 1498/1/6
f 1498/1/6 1495/1/6 1499/1/6
f 1500/1/6 1501/1/6 1504/1/6
f 1504/1/6 1501/1/6 1505/1/6
f 1502/1/6 1503/1/6 1506/1/6
f 1506/1/6 1503/1/6 1507/1/6
f 1508/1/6 1509/1/6 1512/1/6
f 1512/1/6 1509/1/6 1513/1/6
f 1510/1/6 1511/1/6 1514/1/6
f 1514/1/6 1511/1/6 1515/1/6
f 1516/1/6 1517/1/6 1520/1/6
f 1520/1/6 1517/1/6 1521/1/6
f 1518/1/6 1519/1/6 1522/1/6
f 1522/1/6 1519/1/6 1523/1/6
f 1524/1/6 1525/1/6 1528/1/6
f 1528/1/6 1525/1/6 1529/1/6
f 1526/1/6 1527/1/6 1530/1/6
f 1530/1/6 1527/1/6 1531/1/6
f 1532/1/6 1533/1/6 1537/1/6
f 1537/1/6 1533/1/6 1538/1/6
f 1534/1/6 1535/1/6 1539/1/6
f 1539/1/6 1535/1/6 1540/1/6
f 1536/1/6 1537/1/6 1542/1/6
f 1542/1/6 1537/1/6 1543/1/6
f 1540/1/6 1541/1/6 1544/1/6
f 1544/1/6 1541/1/6 1545/1/6
f 1546/1/6 1547/1/6 1550/1/6
f 1550/1/6 1547/1/6 1551/1/6
f 1548/1/6 1549/1/6 1554/1/6
f 1554/1/6 1549/1/6 1555/1/6
f 1551/1/6 1552/1/6 1556/1/6
f 1556/1/6 1552/1/6 1557/1/6
f 1553/1/6 1554/1/6 1558/1/6
f 1558/1/6 1554/1/6 1559/1/6
f 1560/1/6 1561/1/6 1562/1/6
f 1562/1/6 1561/1/6 1563/1/6
f 1560/1/6 1562/1/6 1564/1/6
f 1564/1/6 1562/1/6 1565/1/6
f 1563/1/6 1561/1/6 1566/1/6
f 1566/1/6 1561/1/6 1567/1/6
f 1560/1/6 1564/1/6 1568/1/6
f 1568/1/6 1564/1/6 1569/1/6
f 1567/1/6 1561/1/6 1570/1/6
f 1570/1/6 1561/1/6 1571/1/6
f 1560/1/6 1568/1/6 1572/1/6
f 1572/1/6 1568/1/6 1573/1/6
f 1571/1/6 1561/1/6 1574/1/6
f 1574/1/6 1561/1/6 1575/1/6
f 1560/1/6 1572/1/6 1576/1/6
f 1576/1/6 1572/1/6 1577/1/6
f 1575/1/6 1561/1/6 1578/1/6
f 1578/1/6 1561/1/6 1579/1/6
f 1560/1/6 1576/1/6 1580/1/6
f 1580/1/6 1576/1/6 1581/1/6
f 1579/1/6 1561/1/6 1582/1/6
f 1582/1/6 1561/1/6 1583/1/6
f 1560/1/6 1580/1/6 1584/1/6
f 1584/1/6 1580/1/6 1585/1/6
f 1583/1/6 1561/1/6 1586/1/6
f 1586/1/6 1561/1/6 1587/1/6
f 1560/1/6 1584/1/6 1588/1/6
f 1588/1/6 1584/1/6 1589/1/6
f 1587/1/6 1561/1/6 1590/1/6
f 1590/1/6 1561/1/6 1591/1/6
f 1560/1/6 1588/1/6 1592/1/6
f 1592/1/6 1593/1/6 1594/1/6
f 1594/1/6 1595/1/6 1596/1/6
f 1591/1/6 1561/1/6 1599/1/6
f 1596/1/6 1597/1/6 1600/1/6
f 1598/1/6 1599/1/6 1603/1/6
f 1600/1/6 1601/1/6 1604/1/6
f 1602/1/6 1603/1/6 1607/1/6
f 1604/1/6 1605/1/6 1608/1/6
f 1606/1/6 1607/1/6 1611/1/6
f 1608/1/6 1609/1/6 1612/1/6
f 1610/1/6 1611/1/6 1615/1/6
f 1612/1/6 1613/1/6 1616/1/6
f 1614/1/6 1615/1/6 1619/1/6
f 1616/1/6 1617/1/6 1620/1/6
f 1618/1/6 1619/1/6 1621/1/6
f 1616/1/6 1620/1/6 1622/1/6
f 1620/1/6 1621/1/6 1622/1/6
f 1560/1/6 1592/1/6 1622/1/6
f 1592/1/6 1594/1/6 1622/1/6
f 1594/1/6 1596/1/6 1622/1/6
f 1596/1/6 1600/1/6 1622/1/6
f 1612/1/6 1616/1/6 1622/1/6
f 1600/1/6 1604/1/6 1622/1/6
f 1604/1/6 1608/1/6 1622/1/6
f 1608/1/6 1612/1/6 1622/1/6
f 1621/1/6 1619/1/6 1623/1/6
f 1622/1/6 1621/1/6 1623/1/6
f 1619/1/6 1615/1/6 1623/1/6
f 1599/1/6 1561/1/6 1623/1/6
f 1611/1/6 1607/1/6 1623/1/6
f 1607/1/6 1603/1/6 1623/1/6
f 1615/1/6 1611/1/6 1623/1/6
f 1603/1/6 1599/1/6 1623/1/6
