# Blender v2.79 (sub 0) OBJ File: 'sci-fi-center.blend'
# www.blender.org
o pc_Cube.002
v 0.142736 0.060255 0.508196
v 0.315252 0.060255 0.449253
v 0.471245 0.060255 0.346808
v 0.584849 0.060255 0.218575
v 0.666776 0.060255 0.046825
v 0.694700 0.060255 -0.195413
v 0.664464 0.060255 -0.563516
v 0.040926 0.408308 -0.034593
v 0.075694 0.408308 -0.045615
v 0.105082 0.408308 -0.064772
v 0.126326 0.408308 -0.088751
v 0.141646 0.408308 -0.120837
v 0.146867 0.408308 -0.165762
v 0.141213 0.408308 -0.215842
v 0.041651 0.776823 0.007955
v 0.043355 0.776823 0.023455
v 0.292937 0.327693 -0.167414
v 0.446289 0.232986 -0.169476
v 0.427604 0.232986 -0.344614
v 0.280926 0.327693 -0.271068
v 0.102447 0.232986 0.264232
v 0.070939 0.327693 0.111186
v 0.041781 0.776823 0.037361
v 0.037164 0.776823 0.047292
v 0.211570 0.232986 0.227804
v 0.141980 0.327693 0.087770
v 0.030761 0.776823 0.054714
v 0.021904 0.776823 0.060644
v 0.011426 0.776823 0.064056
v 0.308193 0.232986 0.164493
v 0.204168 0.327693 0.047072
v 0.378401 0.232986 0.085244
v 0.249298 0.327693 -0.003869
v 0.429032 0.232986 -0.020812
v 0.281845 0.327693 -0.072028
v 0.051224 0.515989 -0.024111
v 0.095693 0.515989 -0.074830
v 0.099213 0.515989 -0.105121
v 0.095401 0.515989 -0.138889
v 0.027781 0.515989 -0.016679
v 0.071039 0.515989 -0.037028
v 0.085363 0.515989 -0.053195
v 0.031064 0.625680 0.011929
v 0.062506 0.625680 -0.023932
v 0.062300 0.625680 -0.069226
v 0.014488 0.625680 0.017185
v 0.055202 0.625680 -0.008636
v 0.064996 0.625680 -0.045350
v 0.045075 0.625680 0.002797
v 0.034732 0.948602 0.062650
v 0.036311 0.948602 0.080641
v 0.034853 0.948602 0.096778
v 0.030575 0.948602 0.108305
v 0.024642 0.948602 0.116919
v 0.016436 0.948602 0.123801
v 0.006727 0.948602 0.127760
v 0.035836 1.064552 0.074082
v 0.037415 1.064552 0.104965
v 0.035957 1.064552 0.130605
v 0.031679 1.064552 0.148918
v 0.025747 1.064552 0.162604
v 0.017540 1.064552 0.173538
v 0.007831 1.064552 0.179828
v 0.102237 1.512216 0.051354
v 0.031311 1.284867 0.179362
v 0.039981 1.312660 0.163713
v 0.070217 1.409579 0.109144
v 0.024500 0.776823 0.007955
v 0.390861 0.060255 -0.563516
v 0.251532 0.232986 -0.344614
v 0.165251 0.327693 -0.271068
v 0.083067 0.408308 -0.215842
v 0.056118 0.515989 -0.138889
v 0.036647 0.625680 -0.069226
v 0.020431 0.948602 0.062650
v 0.021080 1.064552 0.074082
v 0.051032 1.226940 0.138889
v 0.053847 1.221980 0.076129
v 0.020442 1.164338 0.194625
v 0.009522 1.147038 0.205499
v 0.040030 1.202568 0.163713
v 0.056553 1.237089 0.109143
v 0.030894 1.182919 0.179362
v 0.029757 1.221980 0.076129
v 0.016829 1.238446 0.205500
v 0.053736 1.356750 0.138889
v 0.022854 1.257759 0.194625
v 0.025738 1.330341 0.151013
v 0.021377 1.342647 0.181666
v 0.012691 1.346949 0.189211
v 0.040496 1.469772 0.071529
v 0.034322 1.466409 0.083801
v 0.023034 1.484941 0.062880
v 0.022029 1.477088 0.077712
v 0.022029 1.468696 0.090739
v 0.043922 1.441614 0.087575
v 0.040214 1.393726 0.114871
v 0.037603 1.447370 0.099817
v 0.034373 1.410844 0.143679
v 0.019325 1.418298 0.156752
v 0.022563 1.454819 0.112882
v 0.032976 1.362033 0.132942
v 0.027875 1.380651 0.166489
v 0.016008 1.386529 0.176798
v 1.391021 2.181160 0.346421
v 1.391021 2.181160 0.412901
v 1.597744 4.073455 0.333136
v 1.597743 4.073455 0.433464
v 0.297323 1.983318 0.412901
v 0.297323 1.983318 0.346421
v 1.534667 2.275160 0.457492
v 1.534667 2.275160 0.309107
v 0.411816 2.181160 0.346421
v 0.411816 2.181160 0.412901
v 0.265791 2.164821 0.412901
v 0.214783 2.058724 0.412901
v 0.274805 2.133487 0.412901
v 0.257999 2.097739 0.412901
v 1.627552 2.379841 0.309107
v 0.328718 2.275160 0.457492
v 1.465759 2.223460 0.457492
v 1.465759 2.223460 0.309107
v 0.299577 2.223460 0.457492
v 1.515452 2.259194 0.457492
v 1.515452 2.259194 0.309107
v 1.627552 2.379841 0.457492
v 0.334086 2.259194 0.457492
v 1.602832 2.340952 0.309107
v 0.327184 2.245211 0.457492
v 1.602832 2.340952 0.457492
v 1.495972 2.245211 0.457492
v 1.495972 2.245211 0.309107
v 1.483113 2.379841 0.457492
v 1.639088 3.615551 0.309107
v 1.639088 3.615551 0.457493
v 1.744040 3.751832 0.294776
v 1.744039 3.751832 0.471824
v 1.498538 4.073455 0.433464
v 1.498539 4.073455 0.333136
v 1.639088 2.517519 0.457492
v 1.639088 2.517519 0.309107
v 1.423394 2.340952 0.457492
v 1.550440 3.615551 0.457493
v 1.550440 3.751832 0.471824
v 1.550440 2.517519 0.457492
v 1.639088 2.413556 0.457492
v 1.639088 2.413556 0.309107
v 1.519909 2.413556 0.457492
v 1.550440 3.803618 0.466060
v 1.693481 3.862983 0.309345
v 1.693480 3.862983 0.457255
v 1.639744 3.862983 0.457255
v 1.598607 3.959934 0.446852
v 1.608446 4.049928 0.328927
v 1.499070 4.117796 0.333136
v 1.608444 4.049928 0.437673
v 1.499069 4.117796 0.433464
v 1.529501 4.049928 0.437673
v 1.581875 4.117796 0.433464
v 1.624245 3.833301 0.461361
v 1.581876 4.117796 0.333136
v 0.265791 2.164821 0.395768
v 0.214783 2.058724 0.395768
v 0.274805 2.133487 0.395768
v 0.257999 2.097739 0.395768
v 0.328718 2.275160 0.419252
v 0.299577 2.223460 0.419252
v 0.334086 2.259194 0.419252
v 0.327184 2.245211 0.419252
v 0.170109 1.943563 0.412901
v 0.170110 1.943563 0.346421
v 1.628009 3.911459 0.452054
v 1.671431 3.911459 0.314547
v 1.671430 3.911459 0.452054
v 1.595011 3.818460 0.463710
v 1.540613 2.462455 0.457492
v 0.413353 2.223460 0.457492
v 1.639088 2.462455 0.309107
v 1.639088 2.462455 0.457492
v 0.413353 2.223460 0.309107
v 0.000000 0.060255 0.525527
v -0.142736 0.060255 0.508196
v -0.315252 0.060255 0.449253
v -0.471245 0.060255 0.346808
v -0.584849 0.060255 0.218575
v -0.666776 0.060255 0.046825
v -0.694700 0.060255 -0.195413
v -0.664464 0.060255 -0.563516
v 0.000000 0.408308 -0.031352
v -0.040926 0.408308 -0.034593
v -0.075694 0.408308 -0.045615
v -0.105082 0.408308 -0.064772
v -0.126326 0.408308 -0.088751
v -0.141646 0.408308 -0.120837
v -0.146867 0.408308 -0.165762
v -0.141213 0.408308 -0.215842
v 0.000000 0.776823 0.007955
v -0.041651 0.776823 0.007955
v -0.043355 0.776823 0.023455
v -0.292937 0.327693 -0.167414
v -0.446289 0.232986 -0.169476
v -0.427604 0.232986 -0.344614
v -0.280926 0.327693 -0.271068
v 0.000000 0.327693 0.118071
v 0.000000 0.232986 0.274943
v -0.102447 0.232986 0.264232
v -0.070939 0.327693 0.111186
v -0.041781 0.776823 0.037361
v -0.037164 0.776823 0.047292
v -0.211570 0.232986 0.227804
v -0.141980 0.327693 0.087770
v -0.030761 0.776823 0.054714
v -0.021904 0.776823 0.060644
v -0.011426 0.776823 0.064056
v 0.000000 0.776823 0.065058
v -0.308193 0.232986 0.164493
v -0.204168 0.327693 0.047072
v 0.000000 0.327693 -0.271068
v 0.000000 0.232986 -0.344614
v -0.378401 0.232986 0.085244
v -0.249298 0.327693 -0.003869
v 0.000000 0.408308 -0.215842
v 0.000000 0.060255 -0.563516
v -0.429032 0.232986 -0.020812
v -0.281845 0.327693 -0.072028
v 0.000000 0.515989 -0.138889
v -0.051224 0.515989 -0.024111
v -0.095693 0.515989 -0.074830
v -0.099213 0.515989 -0.105121
v -0.095401 0.515989 -0.138889
v 0.000000 0.515989 -0.014493
v -0.027781 0.515989 -0.016679
v -0.071039 0.515989 -0.037028
v -0.085363 0.515989 -0.053195
v 0.000000 0.625680 -0.069226
v -0.031064 0.625680 0.011929
v -0.062506 0.625680 -0.023932
v -0.062300 0.625680 -0.069226
v -0.014488 0.625680 0.017185
v -0.055202 0.625680 -0.008636
v -0.064996 0.625680 -0.045350
v 0.000000 0.625680 0.018730
v -0.045075 0.625680 0.002797
v 0.000000 0.948602 0.062650
v -0.034732 0.948602 0.062650
v -0.036311 0.948602 0.080641
v -0.034853 0.948602 0.096778
v -0.030575 0.948602 0.108305
v -0.024642 0.948602 0.116919
v -0.016436 0.948602 0.123801
v -0.006727 0.948602 0.127760
v 0.000000 0.948602 0.128924
v 0.000000 1.064552 0.074082
v -0.035836 1.064552 0.074082
v -0.037415 1.064552 0.104965
v -0.035957 1.064552 0.130605
v -0.031679 1.064552 0.148918
v -0.025747 1.064552 0.162604
v -0.017540 1.064552 0.173538
v -0.007831 1.064552 0.179828
v 0.000000 1.064552 0.181677
v 0.000000 1.512216 0.051354
v -0.102237 1.512216 0.051354
v -0.031311 1.284867 0.179362
v -0.039981 1.312660 0.163713
v 0.000000 1.409579 0.109144
v 0.000000 1.284867 0.179362
v 0.000000 1.238446 0.205500
v -0.070217 1.409579 0.109144
v 0.000000 1.184503 0.235872
v -0.024500 0.776823 0.007955
v -0.390861 0.060255 -0.563516
v -0.251532 0.232986 -0.344614
v -0.165251 0.327693 -0.271068
v -0.083067 0.408308 -0.215842
v -0.056118 0.515989 -0.138889
v -0.036647 0.625680 -0.069226
v -0.020431 0.948602 0.062650
v -0.021080 1.064552 0.074082
v -0.051032 1.226940 0.138889
v 0.000000 1.221980 0.076129
v -0.053847 1.221980 0.076129
v -0.020442 1.164338 0.194625
v -0.009522 1.147038 0.205499
v -0.040030 1.202568 0.163713
v -0.056553 1.237089 0.109143
v 0.000000 1.130430 0.212214
v -0.030894 1.182919 0.179362
v -0.029757 1.221980 0.076129
v 0.000000 1.257759 0.194625
v -0.016829 1.238446 0.205500
v -0.053736 1.356750 0.138889
v 0.000000 1.356750 0.138889
v 0.000000 1.312660 0.163713
v -0.022854 1.257759 0.194625
v 0.000000 1.482949 0.075528
v 0.000000 1.246008 0.199098
v 0.000000 1.246008 0.199098
v 0.000000 1.246008 0.199098
v -0.025738 1.330341 0.151013
v 0.000000 1.246008 0.199098
v 0.000000 1.246008 0.199098
v -0.021377 1.342647 0.181666
v 0.000000 1.348493 0.193352
v -0.012691 1.346949 0.189211
v 0.000000 1.490461 0.059732
v -0.040496 1.469772 0.071529
v -0.034322 1.466409 0.083801
v -0.023034 1.484941 0.062880
v -0.022029 1.477088 0.077712
v 0.000000 1.473057 0.094031
v -0.022029 1.468696 0.090739
v -0.043922 1.441614 0.087575
v -0.040214 1.393726 0.114871
v -0.037603 1.447370 0.099817
v -0.034373 1.410844 0.143679
v 0.000000 1.421181 0.161832
v 0.000000 1.457957 0.118367
v -0.019325 1.418298 0.156752
v -0.022563 1.454819 0.112882
v -0.032976 1.362033 0.132942
v -0.027875 1.380651 0.166489
v -0.016008 1.386529 0.176798
v 0.000000 1.388743 0.181409
v -1.391021 2.181160 0.346421
v -1.391021 2.181160 0.412901
v -1.597744 4.073455 0.333136
v -1.597743 4.073455 0.433464
v 0.000000 2.181160 0.346421
v 0.000000 2.181160 0.412901
v 0.000000 4.073455 0.333136
v 0.000000 4.073455 0.433464
v -0.297323 1.983318 0.412901
v -0.297323 1.983318 0.346421
v 0.000000 1.983318 0.346421
v 0.000000 1.983318 0.412901
v 0.000000 2.164821 0.412901
v 0.000000 2.058724 0.412901
v -1.534667 2.275160 0.457492
v -1.534667 2.275160 0.309107
v -0.411816 2.181160 0.346421
v -0.411816 2.181160 0.412901
v -0.265791 2.164821 0.412901
v -0.214783 2.058724 0.412901
v -0.274805 2.133487 0.412901
v -0.257999 2.097739 0.412901
v -1.627552 2.379841 0.309107
v 0.000000 2.275160 0.457492
v -0.328718 2.275160 0.457492
v 0.000000 2.223460 0.457492
v 0.000000 2.223460 0.309107
v -1.465759 2.223460 0.457492
v -1.465759 2.223460 0.309107
v -0.299577 2.223460 0.457492
v 0.000000 2.164821 0.395768
v 0.000000 2.442005 0.309107
v -1.515452 2.259194 0.457492
v -1.515452 2.259194 0.309107
v -1.627552 2.379841 0.457492
v -0.334086 2.259194 0.457492
v -1.602832 2.340952 0.309107
v -0.327184 2.245211 0.457492
v -1.602832 2.340952 0.457492
v -1.495972 2.245211 0.457492
v -1.495972 2.245211 0.309107
v -1.483113 2.379841 0.457492
v 0.000000 2.340952 0.457492
v -1.639088 3.615551 0.309107
v -1.639088 3.615551 0.457493
v 0.000000 3.615551 0.309107
v 0.000000 3.615551 0.457493
v -1.744040 3.751832 0.294776
v -1.744039 3.751832 0.471824
v 0.000000 3.751832 0.294776
v 0.000000 3.751832 0.471824
v -1.498538 4.073455 0.433464
v -1.498539 4.073455 0.333136
v -1.639088 2.517519 0.457492
v -1.639088 2.517519 0.309107
v -1.423394 2.340952 0.457492
v -1.550440 3.615551 0.457493
v -1.550440 3.751832 0.471824
v -1.550440 2.517519 0.457492
v -1.639088 2.413556 0.457492
v -1.639088 2.413556 0.309107
v -1.519909 2.413556 0.457492
v 0.000000 3.803619 0.466060
v -1.550440 3.803618 0.466060
v -1.693481 3.862983 0.309345
v -1.693480 3.862983 0.457255
v 0.000000 3.862983 0.309345
v 0.000000 3.862983 0.457255
v -1.639744 3.862983 0.457255
v 0.000000 3.959934 0.446852
v -1.598607 3.959934 0.446852
v -1.608446 4.049928 0.328927
v -1.499070 4.117796 0.333136
v -1.608444 4.049928 0.437673
v 0.000000 4.049928 0.328927
v 0.000000 4.049928 0.437673
v -1.499069 4.117796 0.433464
v -1.529501 4.049928 0.437673
v 0.000000 3.833301 0.461361
v -1.581875 4.117796 0.433464
v -1.624245 3.833301 0.461361
v -1.581876 4.117796 0.333136
v 0.000000 2.058724 0.395768
v -0.265791 2.164821 0.395768
v -0.214783 2.058724 0.395768
v -0.274805 2.133487 0.395768
v -0.257999 2.097739 0.395768
v 0.000000 2.275160 0.419252
v -0.328718 2.275160 0.419252
v 0.000000 2.223460 0.419252
v -0.299577 2.223460 0.419252
v -0.334086 2.259194 0.419252
v -0.327184 2.245211 0.419252
v -0.170109 1.943563 0.412901
v -0.170110 1.943563 0.346421
v 0.000000 1.927662 0.412901
v 0.000000 1.927662 0.346421
v 0.000000 3.911459 0.452054
v -1.628009 3.911459 0.452054
v -1.671431 3.911459 0.314547
v -1.671430 3.911459 0.452054
v 0.000000 3.911459 0.314546
v 0.000000 3.818460 0.463710
v -1.595011 3.818460 0.463710
v -1.540613 2.462455 0.457492
v -0.413353 2.223460 0.457492
v -1.639088 2.462455 0.309107
v -1.639088 2.462455 0.457492
v -0.413353 2.223460 0.309107
vt 0.032770 0.974975
vt 0.032770 0.974975
vt 0.032770 0.974975
vt 0.032770 0.974975
vt 0.032770 0.974975
vt 0.032770 0.974975
vt 0.032770 0.974975
vt 0.032770 0.974975
vt 0.032770 0.974975
vt 0.032770 0.974975
vt 0.032770 0.974975
vt 0.032770 0.974975
vt 0.032770 0.974975
vt 0.032770 0.974975
vt 0.032770 0.974975
vt 0.032770 0.974975
vt 0.032770 0.974975
vt 0.032770 0.974975
vt 0.032770 0.974975
vt 0.032770 0.974975
vt 0.032770 0.974975
vt 0.032770 0.974975
vt 0.032770 0.974975
vt 0.032770 0.974975
vt 0.032770 0.974975
vt 0.032770 0.974975
vt 0.032770 0.974975
vt 0.032770 0.974975
vt 0.032770 0.974975
vt 0.032770 0.974975
vt 0.032770 0.974975
vt 0.032770 0.974975
vt 0.032770 0.974975
vt 0.032770 0.974975
vt 0.032770 0.974975
vt 0.032770 0.974975
vt 0.032770 0.974975
vt 0.032770 0.974975
vt 0.032770 0.974975
vt 0.032770 0.974975
vt 0.032770 0.974975
vt 0.032770 0.974975
vt 0.032770 0.974975
vt 0.032770 0.974975
vt 0.032770 0.974975
vt 0.032770 0.974975
vt 0.032770 0.974975
vt 0.032770 0.974975
vt 0.032770 0.974975
vt 0.032770 0.974975
vt 0.032770 0.974975
vt 0.032770 0.974975
vt 0.032770 0.974975
vt 0.032770 0.974975
vt 0.032770 0.974975
vt 0.032770 0.974975
vt 0.032770 0.974975
vt 0.032770 0.974975
vt 0.032770 0.974975
vt 0.032770 0.974975
vt 0.032770 0.974975
vt 0.032770 0.974975
vt 0.032770 0.974975
vt 0.032770 0.974975
vt 0.032770 0.974975
vt 0.032770 0.974975
vt 0.032770 0.974975
vt 0.032770 0.974975
vt 0.032770 0.974975
vt 0.032770 0.974975
vt 0.032770 0.974975
vt 0.032770 0.974975
vt 0.032770 0.974975
vt 0.032770 0.974975
vt 0.032770 0.974975
vt 0.032770 0.974975
vt 0.032770 0.974975
vt 0.032770 0.974975
vt 0.032770 0.974975
vt 0.032770 0.974975
vt 0.032770 0.974975
vt 0.032770 0.974975
vt 0.032770 0.974975
vt 0.032770 0.974975
vt 0.032770 0.974975
vt 0.032770 0.974975
vt 0.032770 0.974975
vt 0.032770 0.974975
vt 0.032770 0.974975
vt 0.032770 0.974975
vt 0.032770 0.974975
vt 0.032770 0.974975
vt 0.032770 0.974975
vt 0.032770 0.974975
vt 0.032770 0.974975
vt 0.032770 0.974975
vt 0.032770 0.974975
vt 0.032770 0.974975
vt 0.032770 0.974975
vt 0.032770 0.974975
vt 0.032770 0.974975
vt 0.032770 0.974975
vt 0.032770 0.974975
vt 0.032770 0.974975
vt 0.032770 0.974975
vt 0.032770 0.974975
vt 0.032770 0.974975
vt 0.032770 0.974975
vt 0.032770 0.974975
vt 0.032770 0.974975
vt 0.032770 0.974975
vt 0.032770 0.974975
vt 0.032770 0.974975
vt 0.032770 0.974975
vt 0.032770 0.974975
vt 0.721057 0.965674
vt 0.721057 0.965674
vt 0.721057 0.965674
vt 0.721057 0.965674
vt 0.721057 0.965674
vt 0.721057 0.965674
vt 0.721057 0.965674
vt 0.721057 0.965674
vt 0.721057 0.965674
vt 0.721057 0.965674
vt 0.721057 0.965674
vt 0.721057 0.965674
vt 0.721057 0.965674
vt 0.721057 0.965674
vt 0.721057 0.965674
vt 0.721057 0.965674
vt 0.721057 0.965674
vt 0.721057 0.965674
vt 0.721057 0.965674
vt 0.721057 0.965674
vt 0.721057 0.965674
vt 0.721057 0.965674
vt 0.721057 0.965674
vt 0.721057 0.965674
vt 0.721057 0.965674
vt 0.721057 0.965674
vt 0.519531 0.578125
vt 0.519531 0.578125
vt 0.519531 0.578125
vt 0.519531 0.578125
vt 0.519531 0.578125
vt 0.519531 0.578125
vt 0.519531 0.578125
vt 0.519531 0.578125
vt 0.250523 0.636828
vt 0.250523 0.617045
vt 0.475599 0.617045
vt 0.475599 0.636828
vt 0.486313 0.648655
vt 0.488563 0.652964
vt 0.250523 0.652964
vt 0.250523 0.648655
vt 0.733619 0.971850
vt 0.733619 0.971850
vt 0.733619 0.971850
vt 0.733619 0.971850
vt 0.519531 0.578125
vt 0.519531 0.578125
vt 0.519531 0.578125
vt 0.519531 0.578125
vt 0.519531 0.578125
vt 0.519531 0.578125
vt 0.519531 0.578125
vt 0.516450 0.446001
vt 0.739646 0.460073
vt 0.511402 0.456111
vt 0.513008 0.451416
vt 0.519531 0.578125
vt 0.519531 0.578125
vt 0.519531 0.578125
vt 0.519531 0.578125
vt 0.519531 0.578125
vt 0.519531 0.578125
vt 0.519531 0.578125
vt 0.519531 0.578125
vt 0.519531 0.578125
vt 0.519531 0.578125
vt 0.519531 0.578125
vt 0.519531 0.578125
vt 0.519531 0.578125
vt 0.471167 0.442552
vt 0.250523 0.432012
vt 0.457156 0.432012
vt 0.465825 0.437658
vt 0.519531 0.578125
vt 0.519531 0.578125
vt 0.519531 0.578125
vt 0.519531 0.578125
vt 0.519531 0.578125
vt 0.474172 0.449651
vt 0.475599 0.457644
vt 0.519531 0.578125
vt 0.519531 0.578125
vt 0.519531 0.578125
vt 0.519531 0.578125
vt 0.682086 0.429640
vt 0.739646 0.429640
vt 0.519531 0.578125
vt 0.519531 0.578125
vt 0.519531 0.578125
vt 0.519531 0.578125
vt 0.519531 0.578125
vt 0.519531 0.578125
vt 0.519531 0.578125
vt 0.530973 0.687254
vt 0.515669 0.683978
vt 0.739646 0.683978
vt 0.739646 0.687254
vt 0.525943 0.436840
vt 0.519531 0.578125
vt 0.511402 0.470588
vt 0.511402 0.462920
vt 0.519531 0.578125
vt 0.519531 0.578125
vt 0.519531 0.578125
vt 0.519531 0.578125
vt 0.475599 0.644346
vt 0.250523 0.644346
vt 0.482069 0.646501
vt 0.250523 0.646501
vt 0.519531 0.578125
vt 0.519531 0.578125
vt 0.519531 0.578125
vt 0.519531 0.578125
vt 0.519531 0.578125
vt 0.519531 0.578125
vt 0.519531 0.578125
vt 0.519531 0.578125
vt 0.519531 0.578125
vt 0.519531 0.578125
vt 0.519531 0.578125
vt 0.519531 0.578125
vt 0.519531 0.578125
vt 0.519531 0.578125
vt 0.519531 0.578125
vt 0.528618 0.434616
vt 0.511402 0.623490
vt 0.739646 0.623490
vt 0.519531 0.578125
vt 0.531331 0.432669
vt 0.519531 0.578125
vt 0.519531 0.578125
vt 0.739646 0.642467
vt 0.982506 0.642467
vt 0.975465 0.657945
vt 0.739646 0.657945
vt 0.482591 0.667039
vt 0.472559 0.680103
vt 0.250523 0.680103
vt 0.250523 0.667039
vt 0.519531 0.578125
vt 0.519531 0.578125
vt 0.519531 0.578125
vt 0.517159 0.687254
vt 0.530899 0.693428
vt 0.519369 0.693428
vt 0.503828 0.657945
vt 0.496787 0.642467
vt 0.972395 0.664696
vt 0.963624 0.683978
vt 0.739646 0.664696
vt 0.519531 0.578125
vt 0.519531 0.578125
vt 0.519531 0.578125
vt 0.519531 0.578125
vt 0.519531 0.578125
vt 0.519531 0.578125
vt 0.519531 0.578125
vt 0.519531 0.578125
vt 0.519531 0.578125
vt 0.519531 0.578125
vt 0.519531 0.578125
vt 0.519531 0.578125
vt 0.519531 0.578125
vt 0.519531 0.578125
vt 0.519531 0.578125
vt 0.519531 0.578125
vt 0.519531 0.578125
vt 0.519531 0.578125
vt 0.733619 0.971850
vt 0.733619 0.971850
vt 0.733619 0.971850
vt 0.733619 0.971850
vt 0.733619 0.971850
vt 0.733619 0.971850
vt 0.733619 0.971850
vt 0.733619 0.971850
vt 0.733619 0.971850
vt 0.733619 0.971850
vt 0.733619 0.971850
vt 0.733619 0.971850
vt 0.250523 0.660001
vt 0.486860 0.660001
vt 0.519531 0.578125
vt 0.506898 0.664696
vt 0.535538 0.429640
vt 0.545945 0.423750
vt 0.682301 0.423750
vt 0.739646 0.423750
vt 0.032770 0.974975
vt 0.032770 0.974975
vt 0.032770 0.974975
vt 0.032770 0.974975
vt 0.032770 0.974975
vt 0.032770 0.974975
vt 0.032770 0.974975
vt 0.032770 0.974975
vt 0.032770 0.974975
vt 0.032770 0.974975
vt 0.032770 0.974975
vt 0.032770 0.974975
vt 0.032770 0.974975
vt 0.032770 0.974975
vt 0.032770 0.974975
vt 0.032770 0.974975
vt 0.032770 0.974975
vt 0.032770 0.974975
vt 0.032770 0.974975
vt 0.032770 0.974975
vt 0.032770 0.974975
vt 0.032770 0.974975
vt 0.032770 0.974975
vt 0.032770 0.974975
vt 0.032770 0.974975
vt 0.032770 0.974975
vt 0.032770 0.974975
vt 0.032770 0.974975
vt 0.032770 0.974975
vt 0.032770 0.974975
vt 0.032770 0.974975
vt 0.032770 0.974975
vt 0.032770 0.974975
vt 0.032770 0.974975
vt 0.032770 0.974975
vt 0.032770 0.974975
vt 0.032770 0.974975
vt 0.032770 0.974975
vt 0.032770 0.974975
vt 0.032770 0.974975
vt 0.032770 0.974975
vt 0.032770 0.974975
vt 0.032770 0.974975
vt 0.032770 0.974975
vt 0.032770 0.974975
vt 0.032770 0.974975
vt 0.032770 0.974975
vt 0.032770 0.974975
vt 0.032770 0.974975
vt 0.032770 0.974975
vt 0.032770 0.974975
vt 0.032770 0.974975
vt 0.032770 0.974975
vt 0.032770 0.974975
vt 0.032770 0.974975
vt 0.032770 0.974975
vt 0.032770 0.974975
vt 0.032770 0.974975
vt 0.032770 0.974975
vt 0.032770 0.974975
vt 0.032770 0.974975
vt 0.032770 0.974975
vt 0.032770 0.974975
vt 0.032770 0.974975
vt 0.032770 0.974975
vt 0.032770 0.974975
vt 0.032770 0.974975
vt 0.032770 0.974975
vt 0.032770 0.974975
vt 0.032770 0.974975
vt 0.032770 0.974975
vt 0.032770 0.974975
vt 0.032770 0.974975
vt 0.032770 0.974975
vt 0.032770 0.974975
vt 0.032770 0.974975
vt 0.032770 0.974975
vt 0.032770 0.974975
vt 0.032770 0.974975
vt 0.032770 0.974975
vt 0.032770 0.974975
vt 0.032770 0.974975
vt 0.032770 0.974975
vt 0.032770 0.974975
vt 0.032770 0.974975
vt 0.032770 0.974975
vt 0.032770 0.974975
vt 0.721057 0.965674
vt 0.721057 0.965674
vt 0.721057 0.965674
vt 0.721057 0.965674
vt 0.721057 0.965674
vt 0.721057 0.965674
vt 0.721057 0.965674
vt 0.721057 0.965674
vt 0.721057 0.965674
vt 0.721057 0.965674
vt 0.721057 0.965674
vt 0.721057 0.965674
vt 0.721057 0.965674
vt 0.721057 0.965674
vt 0.721057 0.965674
vt 0.721057 0.965674
vt 0.721057 0.965674
vt 0.519531 0.578125
vt 0.519531 0.578125
vt 0.519531 0.578125
vt 0.519531 0.578125
vt 0.519531 0.578125
vt 0.519531 0.578125
vt 0.519531 0.578125
vt 0.519531 0.578125
vt 0.025447 0.636828
vt 0.025447 0.617045
vt 0.014733 0.648655
vt 0.012483 0.652964
vt 0.733619 0.971850
vt 0.733619 0.971850
vt 0.733619 0.971850
vt 0.733619 0.971850
vt 0.519531 0.578125
vt 0.519531 0.578125
vt 0.519531 0.578125
vt 0.962842 0.446001
vt 0.966285 0.451416
vt 0.967891 0.456111
vt 0.519531 0.578125
vt 0.519531 0.578125
vt 0.519531 0.578125
vt 0.519531 0.578125
vt 0.519531 0.578125
vt 0.519531 0.578125
vt 0.519531 0.578125
vt 0.519531 0.578125
vt 0.519531 0.578125
vt 0.029879 0.442552
vt 0.035221 0.437658
vt 0.043890 0.432012
vt 0.519531 0.578125
vt 0.519531 0.578125
vt 0.519531 0.578125
vt 0.519531 0.578125
vt 0.519531 0.578125
vt 0.025447 0.457644
vt 0.026873 0.449651
vt 0.519531 0.578125
vt 0.519531 0.578125
vt 0.519531 0.578125
vt 0.797206 0.429640
vt 0.519531 0.578125
vt 0.519531 0.578125
vt 0.519531 0.578125
vt 0.519531 0.578125
vt 0.519531 0.578125
vt 0.519531 0.578125
vt 0.948319 0.687254
vt 0.953350 0.436840
vt 0.967891 0.462920
vt 0.967891 0.470588
vt 0.519531 0.578125
vt 0.519531 0.578125
vt 0.519531 0.578125
vt 0.519531 0.578125
vt 0.025447 0.644346
vt 0.018976 0.646501
vt 0.519531 0.578125
vt 0.519531 0.578125
vt 0.519531 0.578125
vt 0.519531 0.578125
vt 0.519531 0.578125
vt 0.519531 0.578125
vt 0.519531 0.578125
vt 0.519531 0.578125
vt 0.519531 0.578125
vt 0.519531 0.578125
vt 0.519531 0.578125
vt 0.519531 0.578125
vt 0.519531 0.578125
vt 0.519531 0.578125
vt 0.519531 0.578125
vt 0.950674 0.434616
vt 0.967891 0.623490
vt 0.519531 0.578125
vt 0.947962 0.432669
vt 0.519531 0.578125
vt 0.519531 0.578125
vt 0.519531 0.578125
vt 0.519531 0.578125
vt 0.018454 0.667039
vt 0.028486 0.680103
vt 0.519531 0.578125
vt 0.519531 0.578125
vt 0.962134 0.687254
vt 0.959924 0.693428
vt 0.948393 0.693428
vt 0.519531 0.578125
vt 0.519531 0.578125
vt 0.519531 0.578125
vt 0.519531 0.578125
vt 0.519531 0.578125
vt 0.519531 0.578125
vt 0.519531 0.578125
vt 0.519531 0.578125
vt 0.519531 0.578125
vt 0.519531 0.578125
vt 0.519531 0.578125
vt 0.519531 0.578125
vt 0.733619 0.971850
vt 0.733619 0.971850
vt 0.733619 0.971850
vt 0.733619 0.971850
vt 0.014186 0.660001
vt 0.519531 0.578125
vt 0.943755 0.429640
vt 0.796992 0.423750
vt 0.933347 0.423750
vn 0.9302 0.3508 0.1081
vn 0.0650 0.8205 0.5679
vn 0.0430 0.8787 0.4755
vn 0.3188 0.8139 0.4858
vn 0.4829 0.8739 0.0562
vn 0.5219 0.8159 0.2490
vn 0.5354 -0.2290 0.8129
vn 0.5621 0.8255 -0.0506
vn 0.0000 0.4548 -0.8906
vn 0.5742 0.8160 0.0664
vn 0.4337 0.8150 0.3843
vn 0.4327 0.8776 0.2066
vn 0.3574 0.8786 0.3166
vn 0.2931 -0.2775 0.9149
vn 0.2619 0.8780 0.4007
vn 0.9030 -0.0497 0.4267
vn 0.1483 0.8777 0.4557
vn 0.9759 0.1892 -0.1090
vn 0.1856 0.8156 0.5480
vn 0.4822 0.8743 -0.0554
vn 0.9894 0.0897 0.1138
vn 0.0936 -0.2925 0.9517
vn 0.4707 0.8532 0.2248
vn 0.7431 -0.1529 0.6515
vn 0.3889 0.8544 0.3446
vn 0.0000 0.6133 -0.7898
vn 0.2853 0.8537 0.4357
vn 0.0000 0.7850 -0.6195
vn 0.1644 0.8533 0.4948
vn 0.0000 0.5652 -0.8250
vn 0.0525 0.8544 0.5169
vn 0.5225 0.8507 -0.0575
vn 0.7469 0.0656 0.6617
vn 0.0778 -0.1543 0.9850
vn 0.8877 0.4493 -0.1002
vn 0.8847 0.1971 0.4224
vn 0.3000 -0.1208 0.9463
vn 0.9643 0.2397 0.1121
vn 0.0000 0.5814 -0.8136
vn 0.5456 -0.0432 0.8369
vn 0.7470 -0.0634 0.6618
vn 0.0842 -0.2867 0.9543
vn 0.9316 0.3479 -0.1052
vn 0.9000 0.0729 0.4297
vn 0.2927 -0.2495 0.9231
vn 0.9949 0.0064 0.1004
vn 0.0000 0.5361 -0.8442
vn 0.5379 -0.1723 0.8252
vn 0.9926 0.0720 -0.0973
vn 0.9194 -0.0974 0.3811
vn 0.3251 -0.3191 0.8902
vn 0.1113 -0.3446 0.9321
vn 0.9972 -0.0270 0.0696
vn 0.7788 -0.1860 0.5991
vn 0.0000 0.3034 -0.9529
vn 0.5794 -0.2621 0.7717
vn 0.8684 -0.1802 0.4620
vn 0.9003 -0.0100 0.4352
vn 0.7072 -0.2748 0.6515
vn 0.0000 0.0981 -0.9952
vn 0.4345 -0.3655 0.8232
vn 0.9567 -0.0972 0.2743
vn 0.9979 0.0004 -0.0645
vn 0.1852 -0.4055 0.8951
vn 0.0000 -0.0851 -0.9964
vn 0.0000 0.4906 0.8714
vn 0.8025 -0.2391 0.5466
vn 0.9889 -0.1049 0.1054
vn 0.0000 0.0130 -0.9999
vn 0.8471 -0.1210 0.5175
vn 0.9103 -0.0974 0.4023
vn 0.6279 -0.2820 0.7254
vn 0.9930 -0.1110 -0.0403
vn 0.9541 -0.0962 0.2836
vn 0.7172 -0.1901 0.6704
vn 0.8702 -0.0015 0.4928
vn 0.8221 -0.0432 0.5677
vn 0.5250 0.8489 0.0610
vn 0.9221 -0.0737 0.3800
vn 0.9532 -0.0516 0.2979
vn 0.9727 -0.1198 0.1985
vn 0.8583 -0.0124 0.5130
vn 0.9624 -0.1755 0.2074
vn 0.3156 0.0531 0.9474
vn 0.6918 0.1627 0.7036
vn 0.5890 0.6401 0.4933
vn 0.6535 -0.0080 0.7569
vn 0.9762 -0.1006 0.1924
vn 0.4543 0.7742 0.4407
vn 0.1691 0.8787 0.4464
vn 0.2086 0.8460 0.4906
vn 0.3129 0.2653 0.9120
vn 0.2395 0.8251 0.5117
vn 0.4194 0.7631 0.4916
vn 0.9680 0.1103 0.2253
vn 0.2634 0.7341 0.6259
vn 0.6903 0.5302 0.4923
vn 0.8375 0.3835 0.3893
vn 0.2956 0.4906 0.8197
vn 0.9740 -0.0749 0.2139
vn 0.7068 0.3233 0.6293
vn 0.9103 0.4140 0.0000
vn 0.0000 -1.0000 0.0000
vn -0.0000 -0.1046 0.9945
vn -0.0000 0.1370 0.9906
vn 0.2983 -0.9545 0.0000
vn 0.0000 0.0000 1.0000
vn 0.0000 0.0000 -1.0000
vn 0.0000 1.0000 0.0000
vn 0.8655 -0.5009 0.0000
vn 0.6391 -0.7691 0.0000
vn 0.4926 -0.8703 0.0000
vn 0.0000 -0.7255 0.6882
vn 0.5831 -0.8124 0.0000
vn 0.8439 -0.5365 0.0000
vn 0.5843 -0.8116 0.0000
vn 0.0000 0.1761 -0.9844
vn 0.6945 -0.7195 0.0000
vn 1.0000 -0.0000 0.0000
vn -0.0000 0.1106 0.9939
vn 0.0000 0.1564 0.9877
vn 0.7923 -0.6101 0.0000
vn 0.9415 0.3369 0.0000
vn 0.0000 0.1761 0.9844
vn 0.9462 -0.3237 0.0000
vn 0.0000 0.1300 -0.9915
vn -0.0000 0.1015 0.9948
vn -0.9999 0.0120 -0.0000
vn -0.0000 0.1033 -0.9947
vn -0.0000 0.1067 0.9943
vn -0.0016 0.1016 0.9948
vn 0.0045 0.1338 0.9910
vn -0.9610 -0.2765 0.0000
vn -0.8967 0.4426 0.0000
vn -0.9479 -0.3187 0.0000
vn -0.6189 0.7855 0.0000
vn -0.6701 0.7423 0.0000
vn -0.9050 0.4255 0.0000
vn 0.0931 -0.9957 0.0000
vn 0.0069 0.1361 0.9907
vn 0.0000 0.1067 -0.9943
vn 0.0000 -0.6615 -0.7499
vn 0.0000 -0.1046 -0.9945
vn -0.9302 0.3508 0.1081
vn -0.0650 0.8205 0.5679
vn -0.0430 0.8787 0.4755
vn -0.3188 0.8139 0.4858
vn -0.4829 0.8739 0.0562
vn -0.5219 0.8159 0.2490
vn -0.5354 -0.2290 0.8129
vn -0.5621 0.8255 -0.0506
vn -0.5742 0.8160 0.0664
vn -0.4337 0.8150 0.3843
vn -0.4327 0.8776 0.2066
vn -0.3574 0.8786 0.3166
vn -0.2931 -0.2775 0.9149
vn -0.2619 0.8780 0.4007
vn -0.9030 -0.0497 0.4267
vn -0.1483 0.8777 0.4557
vn -0.9759 0.1892 -0.1090
vn -0.1856 0.8156 0.5480
vn -0.4822 0.8743 -0.0554
vn -0.9894 0.0897 0.1138
vn -0.0936 -0.2925 0.9517
vn -0.4707 0.8532 0.2248
vn -0.7431 -0.1529 0.6515
vn -0.3889 0.8544 0.3446
vn -0.2853 0.8537 0.4357
vn -0.1644 0.8533 0.4948
vn -0.0525 0.8544 0.5169
vn -0.5225 0.8507 -0.0575
vn -0.7469 0.0656 0.6617
vn -0.0778 -0.1543 0.9850
vn -0.8877 0.4493 -0.1002
vn -0.8847 0.1971 0.4224
vn -0.3000 -0.1208 0.9463
vn -0.9643 0.2397 0.1121
vn -0.5456 -0.0432 0.8369
vn -0.7470 -0.0634 0.6618
vn -0.0842 -0.2867 0.9543
vn -0.9316 0.3479 -0.1052
vn -0.9000 0.0729 0.4297
vn -0.2927 -0.2495 0.9231
vn -0.9949 0.0064 0.1004
vn -0.5379 -0.1723 0.8252
vn -0.9926 0.0720 -0.0973
vn -0.9194 -0.0974 0.3811
vn -0.3251 -0.3191 0.8902
vn -0.1113 -0.3446 0.9321
vn -0.9972 -0.0270 0.0696
vn -0.7788 -0.1860 0.5991
vn -0.5794 -0.2621 0.7717
vn -0.8684 -0.1802 0.4620
vn -0.9003 -0.0100 0.4352
vn -0.7072 -0.2748 0.6515
vn -0.4345 -0.3655 0.8232
vn -0.9567 -0.0972 0.2743
vn -0.9979 0.0004 -0.0645
vn -0.1852 -0.4055 0.8951
vn -0.8025 -0.2391 0.5466
vn -0.9889 -0.1049 0.1054
vn -0.8471 -0.1210 0.5175
vn -0.9103 -0.0974 0.4023
vn -0.6279 -0.2820 0.7254
vn -0.9930 -0.1110 -0.0403
vn -0.9541 -0.0962 0.2836
vn -0.7172 -0.1901 0.6704
vn -0.8702 -0.0015 0.4928
vn -0.8221 -0.0432 0.5677
vn -0.5250 0.8489 0.0610
vn -0.9221 -0.0737 0.3800
vn -0.9532 -0.0516 0.2979
vn -0.9727 -0.1198 0.1985
vn -0.8583 -0.0124 0.5130
vn -0.9624 -0.1755 0.2074
vn -0.3156 0.0531 0.9474
vn -0.6917 0.1627 0.7036
vn -0.5890 0.6401 0.4933
vn -0.6535 -0.0080 0.7569
vn -0.9762 -0.1006 0.1924
vn -0.4543 0.7742 0.4407
vn -0.1691 0.8787 0.4464
vn -0.2086 0.8460 0.4906
vn -0.3129 0.2653 0.9120
vn -0.2395 0.8251 0.5117
vn -0.4194 0.7631 0.4916
vn -0.9680 0.1103 0.2253
vn -0.2634 0.7341 0.6259
vn -0.6903 0.5302 0.4923
vn -0.8375 0.3835 0.3893
vn -0.2956 0.4906 0.8197
vn -0.9740 -0.0749 0.2139
vn -0.7068 0.3233 0.6293
vn -0.9103 0.4140 0.0000
vn -0.2983 -0.9545 0.0000
vn -0.8655 -0.5009 0.0000
vn -0.6391 -0.7691 0.0000
vn -0.4926 -0.8703 0.0000
vn -0.5831 -0.8124 0.0000
vn -0.8439 -0.5365 0.0000
vn -0.5843 -0.8116 0.0000
vn -0.6945 -0.7195 0.0000
vn -1.0000 -0.0000 0.0000
vn -0.7923 -0.6101 0.0000
vn -0.9415 0.3369 0.0000
vn -0.9462 -0.3237 0.0000
vn 0.9999 0.0120 -0.0000
vn 0.0016 0.1016 0.9948
vn -0.0045 0.1338 0.9910
vn 0.9610 -0.2765 0.0000
vn 0.8967 0.4426 0.0000
vn 0.9479 -0.3187 0.0000
vn 0.6189 0.7855 0.0000
vn 0.6701 0.7423 0.0000
vn 0.9050 0.4255 0.0000
vn -0.0931 -0.9957 0.0000
vn -0.0069 0.1361 0.9907
s off
f 12/1/1 13/2/1 38/3/1 37/4/1
f 1/5/2 21/6/2 205/7/2 181/8/2
f 22/9/3 8/10/3 189/11/3 204/12/3
f 3/13/4 30/14/4 25/15/4 2/16/4
f 17/17/5 13/2/5 12/1/5 35/18/5
f 5/19/6 34/20/6 32/21/6 4/22/6
f 43/23/7 49/24/7 27/25/7 28/26/7
f 7/27/8 19/28/8 18/29/8 6/30/8
f 74/31/9 235/32/9 197/33/9 68/34/9
f 18/29/10 34/20/10 5/19/10 6/30/10
f 4/22/11 32/21/11 30/14/11 3/13/11
f 35/18/12 12/1/12 11/35/12 33/36/12
f 33/36/13 11/35/13 10/37/13 31/38/13
f 46/39/14 43/23/14 28/26/14 29/40/14
f 31/38/15 10/37/15 9/41/15 26/42/15
f 47/43/16 44/44/16 23/45/16 24/46/16
f 26/42/17 9/41/17 8/10/17 22/9/17
f 48/47/18 45/48/18 15/49/18 16/50/18
f 2/16/19 25/15/19 21/6/19 1/5/19
f 20/51/20 14/52/20 13/2/20 17/17/20
f 44/44/21 48/47/21 16/50/21 23/45/21
f 242/53/22 46/39/22 29/40/22 215/54/22
f 33/36/23 32/21/23 34/20/23 35/18/23
f 49/24/24 47/43/24 24/46/24 27/25/24
f 31/38/25 30/14/25 32/21/25 33/36/25
f 70/55/26 219/56/26 218/57/26 71/58/26
f 26/42/27 25/15/27 30/14/27 31/38/27
f 69/59/28 223/60/28 219/56/28 70/55/28
f 22/9/29 21/6/29 25/15/29 26/42/29
f 71/58/30 218/57/30 222/61/30 72/62/30
f 204/12/31 205/7/31 21/6/31 22/9/31
f 17/17/32 18/29/32 19/28/32 20/51/32
f 10/37/33 11/35/33 42/63/33 41/64/33
f 189/11/34 8/10/34 40/65/34 231/66/34
f 13/2/35 14/52/35 39/67/35 38/3/35
f 11/35/36 12/1/36 37/4/36 42/63/36
f 8/10/37 9/41/37 36/68/37 40/65/37
f 37/4/38 38/3/38 48/47/38 44/44/38
f 72/62/39 222/61/39 226/69/39 73/70/39
f 9/41/40 10/37/40 41/64/40 36/68/40
f 41/64/41 42/63/41 47/43/41 49/24/41
f 231/66/42 40/65/42 46/39/42 242/53/42
f 38/3/43 39/67/43 45/48/43 48/47/43
f 42/63/44 37/4/44 44/44/44 47/43/44
f 40/65/45 36/68/45 43/23/45 46/39/45
f 23/45/46 16/50/46 51/71/46 52/72/46
f 73/70/47 226/69/47 235/32/47 74/31/47
f 36/68/48 41/64/48 49/24/48 43/23/48
f 16/50/49 15/49/49 50/73/49 51/71/49
f 24/46/50 23/45/50 52/72/50 53/74/50
f 29/40/51 28/26/51 55/75/51 56/76/51
f 215/54/52 29/40/52 56/76/52 252/77/52
f 52/72/53 51/71/53 58/78/53 59/79/53
f 27/25/54 24/46/54 53/74/54 54/80/54
f 68/34/55 197/33/55 244/81/55 75/82/55
f 28/26/56 27/25/56 54/80/56 55/75/56
f 54/80/57 53/74/57 60/83/57 61/84/57
f 81/85/58 77/86/58 86/87/58 66/88/58
f 55/75/59 54/80/59 61/84/59 62/89/59
f 75/82/60 244/81/60 253/90/60 76/91/60
f 56/76/61 55/75/61 62/89/61 63/92/61
f 53/74/62 52/72/62 59/79/62 60/83/62
f 51/71/63 50/73/63 57/93/63 58/78/63
f 252/77/64 56/76/64 63/92/64 261/94/64
f 84/95/65 281/96/65 262/97/65
f 66/88/66 294/98/66 267/99/66 65/100/66
f 85/101/66 268/102/66 270/103/66
f 86/87/66 293/104/66 294/98/66 66/88/66
f 287/105/67 80/106/67 270/103/67
f 67/107/66 266/108/66 293/104/66 86/87/66
f 59/79/68 58/78/68 82/109/68 77/86/68
f 87/110/66 290/111/66 268/102/66 85/101/66
f 78/112/65 84/95/65 262/97/65 64/113/65
f 50/73/60 75/82/60 76/91/60 57/93/60
f 15/49/55 68/34/55 75/82/55 50/73/55
f 39/67/47 73/70/47 74/31/47 45/48/47
f 14/52/39 72/62/39 73/70/39 39/67/39
f 20/51/30 71/58/30 72/62/30 14/52/30
f 7/27/28 69/59/28 70/55/28 19/28/28
f 19/28/26 70/55/26 71/58/26 20/51/26
f 45/48/9 74/31/9 68/34/9 15/49/9
f 57/93/69 76/91/69 84/95/69 78/112/69
f 62/89/70 61/84/70 83/114/70 79/115/70
f 61/84/71 60/83/71 81/85/71 83/114/71
f 261/94/72 63/92/72 80/106/72 287/105/72
f 58/78/73 57/93/73 78/112/73 82/109/73
f 60/83/74 59/79/74 77/86/74 81/85/74
f 63/92/75 62/89/75 79/115/75 80/106/75
f 76/91/69 253/90/69 281/96/69 84/95/69
f 66/88/76 65/100/76 83/114/76 81/85/76
f 65/100/66 267/99/66 290/111/66 87/110/66
f 64/113/66 262/97/66 266/108/66 67/107/66
f 79/115/77 87/110/77 85/101/77 80/106/77
f 35/18/78 34/20/78 18/29/78 17/17/78
f 80/106/79 85/101/79 270/103/79
f 86/87/80 77/86/80 82/109/80 67/107/80
f 67/107/81 82/109/81 78/112/81 64/113/81
f 83/114/82 65/100/82 87/110/82 79/115/82
f 88/116/83 89/117/83 302/118/83 301/119/83
f 301/119/84 302/118/84 90/120/84 304/121/84
f 103/122/85 104/123/85 90/120/85 89/117/85
f 101/124/86 98/125/86 92/126/86 95/127/86
f 302/118/87 89/117/87 90/120/87
f 102/128/88 103/122/88 89/117/88 88/116/88
f 91/129/89 93/130/89 94/131/89 92/126/89
f 306/132/90 296/133/90 94/131/90 93/130/90
f 296/133/91 311/134/91 95/127/91 94/131/91
f 324/135/92 304/121/92 90/120/92 104/123/92
f 318/136/93 101/124/93 95/127/93 311/134/93
f 92/126/94 94/131/94 95/127/94
f 96/137/95 98/125/95 99/138/95 97/139/95
f 317/140/96 100/141/96 101/124/96 318/136/96
f 98/125/97 101/124/97 100/141/97 99/138/97
f 96/137/98 91/129/98 92/126/98 98/125/98
f 317/140/99 324/135/99 104/123/99 100/141/99
f 97/139/100 99/138/100 103/122/100 102/128/100
f 99/138/101 100/141/101 104/123/101 103/122/101
f 154/142/102 107/143/102 108/144/102 156/145/102
f 105/146/103 106/147/103 114/148/103 113/149/103
f 375/150/104 371/151/104 143/152/104 144/153/104
f 160/154/105 152/155/105 392/156/105 403/157/105
f 110/158/106 109/159/106 170/160/106 171/161/106
f 116/162/107 338/163/107 336/164/107 109/165/107
f 114/148/107 330/166/107 337/167/107 115/168/107
f 128/169/108 356/170/108 147/171/108 119/172/108
f 131/173/107 124/174/107 127/175/107 129/176/107
f 139/177/109 331/178/109 332/179/109 138/180/109
f 113/149/110 114/148/110 109/165/110 110/181/110
f 114/148/107 117/182/107 118/183/107 109/165/107
f 114/148/107 115/168/107 117/182/107
f 109/165/107 118/183/107 116/162/107
f 329/184/108 113/149/108 110/181/108 335/185/108
f 148/186/107 367/187/107 142/188/107 133/189/107
f 125/190/111 112/191/111 111/192/111 124/174/111
f 105/146/112 122/193/112 121/194/112 106/147/112
f 148/186/107 176/195/107 145/196/107 367/187/107
f 177/197/107 129/176/107 123/198/107
f 114/148/113 123/198/113 350/199/113 330/166/113
f 371/151/107 367/187/107 145/196/107 143/152/107
f 114/148/113 177/197/113 123/198/113
f 132/200/114 125/190/114 124/174/114 131/173/114
f 356/170/108 180/201/108 351/202/108
f 128/203/115 119/204/115 126/205/115 130/206/115
f 122/193/116 132/200/116 131/173/116 121/194/116
f 111/192/107 142/207/107 367/208/107 120/209/107
f 139/210/117 154/211/117 399/212/117 331/213/117
f 128/169/108 112/214/108 356/170/108
f 120/209/107 367/208/107 348/215/107
f 112/191/118 128/203/118 130/206/118 111/192/118
f 356/170/108 141/216/108 178/217/108 147/171/108
f 124/174/107 111/192/107 120/209/107 127/175/107
f 141/218/119 134/219/119 135/220/119 140/221/119
f 144/153/120 149/222/120 387/223/120 375/150/120
f 175/224/121 160/154/121 403/157/121 427/225/121
f 134/219/122 136/226/122 137/227/122 135/220/122
f 135/220/104 137/227/104 144/228/104 143/229/104
f 140/221/107 135/220/107 143/229/107 145/230/107
f 111/192/107 130/206/107 142/207/107
f 126/205/107 146/231/107 148/232/107 133/233/107
f 108/144/123 107/143/123 161/234/123 159/235/123
f 156/145/124 108/144/124 138/180/124 158/236/124
f 178/237/119 141/218/119 140/221/119 179/238/119
f 179/238/107 140/221/107 145/230/107 176/239/107
f 119/204/125 147/240/125 146/231/125 126/205/125
f 112/214/108 125/241/108 356/170/108
f 134/242/108 141/216/108 356/170/108 370/243/108
f 137/227/120 149/244/120 144/228/120
f 125/241/108 132/245/108 356/170/108
f 161/234/109 155/246/109 157/247/109 159/235/109
f 374/248/126 372/249/126 389/250/126 391/251/126
f 153/252/127 158/253/127 400/254/127 394/255/127
f 151/256/105 152/257/105 160/258/105
f 139/177/128 138/180/128 157/247/128 155/246/128
f 107/259/108 139/210/108 155/260/108 161/261/108
f 374/248/126 391/251/126 150/262/126 136/263/126
f 138/180/107 108/144/107 159/235/107 157/247/107
f 424/264/129 396/265/129 399/212/129 426/266/129
f 174/267/130 153/268/130 172/269/130
f 138/180/124 332/179/124 400/270/124 158/236/124
f 107/259/117 154/211/117 139/210/117
f 174/267/131 156/145/131 158/236/131 153/268/131
f 173/271/102 154/142/102 156/145/102 174/267/102
f 137/227/132 151/256/132 160/258/132 175/272/132
f 117/182/133 115/168/133 162/273/133 164/274/133
f 129/176/134 127/175/134 168/275/134 169/276/134
f 127/175/135 120/209/135 166/277/135 168/275/135
f 123/198/136 129/176/136 169/276/136 167/278/136
f 115/168/103 337/167/103 355/279/103 162/273/103
f 116/162/137 118/183/137 165/280/137 163/281/137
f 350/199/109 123/198/109 167/278/109 414/282/109
f 118/183/138 117/182/138 164/274/138 165/280/138
f 120/209/103 348/215/103 412/283/103 166/277/103
f 338/163/109 116/162/109 163/281/109 407/284/109
f 166/277/107 167/278/107 169/276/107 168/275/107
f 164/274/107 162/273/107 163/281/107 165/280/107
f 412/285/107 414/286/107 167/287/107 166/288/107
f 163/289/107 162/290/107 355/291/107 407/292/107
f 171/161/139 170/160/139 420/293/139 421/294/139
f 335/295/108 110/158/108 171/161/108 421/294/108
f 109/159/107 336/296/107 420/293/107 170/160/107
f 422/297/130 392/156/130 152/155/130 172/298/130
f 150/299/102 173/271/102 174/267/102 151/256/102
f 394/255/130 422/297/130 172/298/130 153/252/130
f 151/256/130 174/267/130 172/269/130 152/257/130
f 137/227/140 175/272/140 149/244/140
f 136/226/102 150/299/102 151/256/102 137/227/102
f 150/262/141 391/251/141 426/266/141 173/300/141
f 149/222/121 175/224/121 427/225/121 387/223/121
f 147/240/119 178/237/119 179/238/119 146/231/119
f 121/194/107 131/173/107 129/176/107 177/197/107
f 106/147/113 121/194/113 177/197/113 114/148/113
f 132/245/108 122/301/108 180/201/108 356/170/108
f 146/231/107 179/238/107 176/239/107 148/232/107
f 130/206/107 126/205/107 133/233/107 142/207/107
f 122/301/142 105/302/142 113/303/142 180/201/142
f 113/303/142 329/304/142 351/202/142 180/201/142
f 370/243/143 374/248/143 136/263/143 134/242/143
f 194/305/144 228/306/144 229/307/144 195/308/144
f 182/309/145 181/8/145 205/7/145 206/310/145
f 207/311/146 204/12/146 189/11/146 190/312/146
f 184/313/147 183/314/147 210/315/147 216/316/147
f 200/317/148 225/318/148 194/305/148 195/308/148
f 186/319/149 185/320/149 220/321/149 224/322/149
f 236/323/150 213/324/150 212/325/150 243/326/150
f 188/327/151 187/328/151 201/329/151 202/330/151
f 277/331/9 271/332/9 197/33/9 235/32/9
f 201/329/152 187/328/152 186/319/152 224/322/152
f 185/320/153 184/313/153 216/316/153 220/321/153
f 225/318/154 221/333/154 193/334/154 194/305/154
f 221/333/155 217/335/155 192/336/155 193/334/155
f 239/337/156 214/338/156 213/324/156 236/323/156
f 217/335/157 211/339/157 191/340/157 192/336/157
f 240/341/158 209/342/158 208/343/158 237/344/158
f 211/339/159 207/311/159 190/312/159 191/340/159
f 241/345/160 199/346/160 198/347/160 238/348/160
f 183/314/161 182/309/161 206/310/161 210/315/161
f 203/349/162 200/317/162 195/308/162 196/350/162
f 237/344/163 208/343/163 199/346/163 241/345/163
f 242/53/164 215/54/164 214/338/164 239/337/164
f 221/333/165 225/318/165 224/322/165 220/321/165
f 243/326/166 212/325/166 209/342/166 240/341/166
f 217/335/167 221/333/167 220/321/167 216/316/167
f 273/351/26 274/352/26 218/57/26 219/56/26
f 211/339/168 217/335/168 216/316/168 210/315/168
f 272/353/28 273/351/28 219/56/28 223/60/28
f 207/311/169 211/339/169 210/315/169 206/310/169
f 274/352/30 275/354/30 222/61/30 218/57/30
f 204/12/170 207/311/170 206/310/170 205/7/170
f 200/317/171 203/349/171 202/330/171 201/329/171
f 192/336/172 233/355/172 234/356/172 193/334/172
f 189/11/173 231/66/173 232/357/173 190/312/173
f 195/308/174 229/307/174 230/358/174 196/350/174
f 193/334/175 234/356/175 228/306/175 194/305/175
f 190/312/176 232/357/176 227/359/176 191/340/176
f 228/306/177 237/344/177 241/345/177 229/307/177
f 275/354/39 276/360/39 226/69/39 222/61/39
f 191/340/178 227/359/178 233/355/178 192/336/178
f 233/355/179 243/326/179 240/341/179 234/356/179
f 231/66/180 242/53/180 239/337/180 232/357/180
f 229/307/181 241/345/181 238/348/181 230/358/181
f 234/356/182 240/341/182 237/344/182 228/306/182
f 232/357/183 239/337/183 236/323/183 227/359/183
f 208/343/184 247/361/184 246/362/184 199/346/184
f 276/360/47 277/331/47 235/32/47 226/69/47
f 227/359/185 236/323/185 243/326/185 233/355/185
f 199/346/186 246/362/186 245/363/186 198/347/186
f 209/342/187 248/364/187 247/361/187 208/343/187
f 214/338/188 251/365/188 250/366/188 213/324/188
f 215/54/189 252/77/189 251/365/189 214/338/189
f 247/361/190 256/367/190 255/368/190 246/362/190
f 212/325/191 249/369/191 248/364/191 209/342/191
f 271/332/55 278/370/55 244/81/55 197/33/55
f 213/324/192 250/366/192 249/369/192 212/325/192
f 249/369/193 258/371/193 257/372/193 248/364/193
f 285/373/194 265/374/194 292/375/194 280/376/194
f 250/366/195 259/377/195 258/371/195 249/369/195
f 278/370/60 279/378/60 253/90/60 244/81/60
f 251/365/196 260/379/196 259/377/196 250/366/196
f 248/364/197 257/372/197 256/367/197 247/361/197
f 246/362/198 255/368/198 254/380/198 245/363/198
f 252/77/199 261/94/199 260/379/199 251/365/199
f 289/381/65 262/97/65 281/96/65
f 265/374/66 264/382/66 267/99/66 294/98/66
f 291/383/66 270/103/66 268/102/66
f 292/375/66 265/374/66 294/98/66 293/104/66
f 287/105/200 270/103/200 284/384/200
f 269/385/66 292/375/66 293/104/66 266/108/66
f 256/367/201 280/376/201 286/386/201 255/368/201
f 295/387/66 291/383/66 268/102/66 290/111/66
f 282/388/65 263/389/65 262/97/65 289/381/65
f 245/363/60 254/380/60 279/378/60 278/370/60
f 198/347/55 245/363/55 278/370/55 271/332/55
f 230/358/47 238/348/47 277/331/47 276/360/47
f 196/350/39 230/358/39 276/360/39 275/354/39
f 203/349/30 196/350/30 275/354/30 274/352/30
f 188/327/28 202/330/28 273/351/28 272/353/28
f 202/330/26 203/349/26 274/352/26 273/351/26
f 238/348/9 198/347/9 271/332/9 277/331/9
f 254/380/69 282/388/69 289/381/69 279/378/69
f 259/377/202 283/390/202 288/391/202 258/371/202
f 258/371/203 288/391/203 285/373/203 257/372/203
f 261/94/204 287/105/204 284/384/204 260/379/204
f 255/368/205 286/386/205 282/388/205 254/380/205
f 257/372/206 285/373/206 280/376/206 256/367/206
f 260/379/207 284/384/207 283/390/207 259/377/207
f 279/378/69 289/381/69 281/96/69 253/90/69
f 265/374/208 285/373/208 288/391/208 264/382/208
f 264/382/66 295/387/66 290/111/66 267/99/66
f 263/389/66 269/385/66 266/108/66 262/97/66
f 283/390/209 284/384/209 291/383/209 295/387/209
f 225/318/210 200/317/210 201/329/210 224/322/210
f 284/384/211 270/103/211 291/383/211
f 292/375/212 269/385/212 286/386/212 280/376/212
f 269/385/213 263/389/213 282/388/213 286/386/213
f 288/391/214 283/390/214 295/387/214 264/382/214
f 300/392/215 301/119/215 302/118/215 303/393/215
f 301/119/216 304/121/216 305/394/216 302/118/216
f 322/395/217 303/393/217 305/394/217 323/396/217
f 320/397/218 312/398/218 308/399/218 315/400/218
f 302/118/219 305/394/219 303/393/219
f 321/401/220 300/392/220 303/393/220 322/395/220
f 307/402/221 308/399/221 310/403/221 309/404/221
f 306/132/222 309/404/222 310/403/222 296/133/222
f 296/133/223 310/403/223 312/398/223 311/134/223
f 324/135/224 323/396/224 305/394/224 304/121/224
f 318/136/225 311/134/225 312/398/225 320/397/225
f 308/399/226 312/398/226 310/403/226
f 313/405/227 314/406/227 316/407/227 315/400/227
f 317/140/228 318/136/228 320/397/228 319/408/228
f 315/400/229 316/407/229 319/408/229 320/397/229
f 313/405/230 315/400/230 308/399/230 307/402/230
f 317/140/231 319/408/231 323/396/231 324/135/231
f 314/406/232 321/401/232 322/395/232 316/407/232
f 316/407/233 322/395/233 323/396/233 319/408/233
f 396/409/234 398/410/234 328/411/234 327/412/234
f 325/413/103 341/414/103 342/415/103 326/416/103
f 375/150/104 382/417/104 381/418/104 371/151/104
f 405/419/105 403/157/105 392/156/105 393/420/105
f 334/421/235 419/422/235 418/423/235 333/424/235
f 344/425/107 333/426/107 336/164/107 338/163/107
f 342/415/107 343/427/107 337/167/107 330/166/107
f 361/428/108 347/429/108 385/430/108 356/170/108
f 364/431/107 362/432/107 360/433/107 357/434/107
f 377/435/109 376/436/109 332/179/109 331/178/109
f 341/414/236 334/437/236 333/426/236 342/415/236
f 342/415/107 333/426/107 346/438/107 345/439/107
f 342/415/107 345/439/107 343/427/107
f 333/426/107 344/425/107 346/438/107
f 329/184/108 335/185/108 334/437/108 341/414/108
f 386/440/107 366/441/107 380/442/107 367/187/107
f 358/443/237 357/434/237 339/444/237 340/445/237
f 325/413/238 326/416/238 352/446/238 353/447/238
f 386/440/107 367/187/107 383/448/107 429/449/107
f 430/450/107 354/451/107 362/432/107
f 342/415/113 330/166/113 350/199/113 354/451/113
f 371/151/107 381/418/107 383/448/107 367/187/107
f 342/415/113 354/451/113 430/450/113
f 365/452/239 364/431/239 357/434/239 358/443/239
f 356/170/108 351/202/108 433/453/108
f 361/454/240 363/455/240 359/456/240 347/457/240
f 353/447/241 352/446/241 364/431/241 365/452/241
f 339/444/107 349/458/107 367/208/107 380/459/107
f 377/460/117 331/213/117 399/212/117 396/265/117
f 361/428/108 356/170/108 340/461/108
f 349/458/107 348/215/107 367/208/107
f 340/445/242 339/444/242 363/455/242 361/454/242
f 356/170/108 385/430/108 431/462/108 379/463/108
f 357/434/107 360/433/107 349/458/107 339/444/107
f 379/464/243 378/465/243 369/466/243 368/467/243
f 382/417/120 375/150/120 387/223/120 388/468/120
f 428/469/121 427/225/121 403/157/121 405/419/121
f 368/467/244 369/466/244 373/470/244 372/471/244
f 369/466/104 381/472/104 382/473/104 373/470/104
f 378/465/107 383/474/107 381/472/107 369/466/107
f 339/444/107 380/459/107 363/455/107
f 359/456/107 366/475/107 386/476/107 384/477/107
f 328/411/245 404/478/245 406/479/245 327/412/245
f 398/410/124 402/480/124 376/436/124 328/411/124
f 431/481/243 432/482/243 378/465/243 379/464/243
f 432/482/107 429/483/107 383/474/107 378/465/107
f 347/457/246 359/456/246 384/477/246 385/484/246
f 340/461/108 356/170/108 358/485/108
f 368/486/108 370/243/108 356/170/108 379/463/108
f 373/470/120 382/473/120 388/487/120
f 358/485/108 356/170/108 365/488/108
f 406/479/109 404/478/109 401/489/109 397/490/109
f 372/471/234 373/470/234 390/491/234 389/492/234
f 395/493/127 394/255/127 400/254/127 402/494/127
f 390/491/105 405/495/105 393/496/105
f 377/435/247 397/490/247 401/489/247 376/436/247
f 327/497/108 406/498/108 397/499/108 377/460/108
f 376/436/107 401/489/107 404/478/107 328/411/107
f 425/500/130 423/501/130 395/502/130
f 376/436/124 402/480/124 400/270/124 332/179/124
f 173/300/129 426/266/129 399/212/129 154/211/129
f 327/497/117 377/460/117 396/265/117
f 425/500/248 395/502/248 402/480/248 398/410/248
f 373/470/249 428/503/249 405/495/249 390/491/249
f 345/439/250 410/504/250 408/505/250 343/427/250
f 362/432/251 417/506/251 416/507/251 360/433/251
f 360/433/252 416/507/252 413/508/252 349/458/252
f 354/451/253 415/509/253 417/506/253 362/432/253
f 343/427/103 408/505/103 355/279/103 337/167/103
f 344/425/254 409/510/254 411/511/254 346/438/254
f 350/199/109 414/282/109 415/509/109 354/451/109
f 346/438/255 411/511/255 410/504/255 345/439/255
f 349/458/103 413/508/103 412/283/103 348/215/103
f 338/163/109 407/284/109 409/510/109 344/425/109
f 413/508/107 416/507/107 417/506/107 415/509/107
f 410/504/107 411/511/107 409/510/107 408/505/107
f 412/285/107 413/512/107 415/513/107 414/286/107
f 409/514/107 407/292/107 355/291/107 408/515/107
f 419/422/256 421/294/256 420/293/256 418/423/256
f 335/295/108 421/294/108 419/422/108 334/421/108
f 333/424/107 418/423/107 420/293/107 336/296/107
f 422/297/130 423/516/130 393/420/130 392/156/130
f 389/492/234 390/491/234 425/500/234 424/517/234
f 394/255/130 395/493/130 423/516/130 422/297/130
f 390/491/130 393/496/130 423/501/130 425/500/130
f 373/470/257 388/487/257 428/503/257
f 389/250/141 424/264/141 426/266/141 391/251/141
f 388/468/121 387/223/121 427/225/121 428/469/121
f 385/484/243 384/477/243 432/482/243 431/481/243
f 352/446/107 430/450/107 362/432/107 364/431/107
f 326/416/113 342/415/113 430/450/113 352/446/113
f 365/488/108 356/170/108 433/453/108 353/518/108
f 384/477/107 386/476/107 429/483/107 432/482/107
f 363/455/107 380/459/107 366/475/107 359/456/107
f 353/518/142 433/453/142 341/519/142 325/520/142
f 341/519/142 433/453/142 351/202/142 329/304/142
f 370/243/143 368/486/143 372/249/143 374/248/143
f 425/500/234 398/410/234 396/409/234 424/517/234
l 301 298
l 301 299
l 301 297
